{
"__comment": "Designed by Carisus with BDcraft Cubik",
"textures": {
    "particle": "blocks/bed_head_top",
    "down": "blocks/bed_head_top",
    "up": "blocks/bed_feet_top",
    "north": "blocks/bed_feet_side",
    "south": "blocks/bed_feet_end",
    "west": "blocks/bed_head_side",
    "east": "blocks/bed_feet_side"
},
"elements": [ 
{
    "__comment": "Legs",
    "from": [ 13.25, 0, 0.75 ],
    "to": [ 15.25, 6, 2.75 ],
    "faces": {
        "down":  { "uv": [ 2.75, 15.75, 0, 11 ], "rotation": 180, "texture": "#east", "cullface": "down" },
        "north": { "uv": [ 0, 11, 2.75, 15.75 ], "texture": "#east" },
        "south": { "uv": [ 0, 11, 2.75, 15.75 ], "texture": "#east" },
        "west":  { "uv": [ 0, 11, 2.75, 15.75 ], "texture": "#east" },
        "east":  { "uv": [ 0, 11, 2.75, 15.75 ], "texture": "#east" }
    }
},
{
    "__comment": "Legs*",
    "from": [ 0.75, 0, 0.75 ],
    "to": [ 2.75, 6, 2.75 ],
    "faces": {
        "down":  { "uv": [ 2.75, 15.75, 0, 11 ], "rotation": 180, "texture": "#east", "cullface": "down" },
        "north": { "uv": [ 0, 11, 2.75, 15.75 ], "texture": "#east" },
        "south": { "uv": [ 0, 11, 2.75, 15.75 ], "texture": "#east" },
        "west":  { "uv": [ 0, 11, 2.75, 15.75 ], "texture": "#east" },
        "east":  { "uv": [ 0, 11, 2.75, 15.75 ], "texture": "#east" }
    }
},
{
    "__comment": "Support",
    "from": [ 2.75, 4, 1 ],
    "to": [ 13.25, 6, 3 ],
    "faces": {
        "down":  { "uv": [ 16, 13, 3, 11 ], "rotation": 180, "texture": "#east" },
        "north": { "uv": [ 2.75, 11, 13.25, 13 ], "texture": "#east" },
        "south": { "uv": [ 3, 11, 16, 13 ], "texture": "#east" },
        "west":  { "uv": [ 0.25, 11, 2.75, 12.75 ], "texture": "#east" },
        "east":  { "uv": [ 0.25, 11, 2.75, 12.75 ], "texture": "#east" }
    }
},
{
    "from": [ 13, 4, 2.75 ],
    "to": [ 15, 6, 16 ],
    "faces": {
        "down":  { "uv": [ 14.25, 12.75, 12, 11 ], "rotation": 180, "texture": "#east" },
        "north": { "uv": [ 4.25, 11, 6.25, 12.75 ], "texture": "#east" },
        "south": { "uv": [ 13, 11, 14.75, 12.75 ], "texture": "#east", "cullface": "south" },
        "west":  { "uv": [ 2.75, 11, 16, 13 ], "texture": "#east" },
        "east":  { "uv": [ 2.75, 11, 16, 13 ], "texture": "#east" }
    }
},
{
    "from": [ 1, 4, 2.75 ],
    "to": [ 3, 6, 16 ],
    "faces": {
        "down":  { "uv": [ 14.25, 12.75, 12, 11 ], "rotation": 180, "texture": "#east" },
        "north": { "uv": [ 4.25, 11, 6.25, 12.75 ], "texture": "#east" },
        "south": { "uv": [ 13, 11, 14.75, 12.75 ], "texture": "#east", "cullface": "south" },
        "west":  { "uv": [ 2.75, 11, 16, 13 ], "texture": "#east" },
        "east":  { "uv": [ 2.75, 11, 16, 13 ], "texture": "#east" }
    }
},
{
    "from": [ 0, 6, 0 ],
    "to": [ 16, 10, 16 ],
    "faces": {
        "down":  { "uv": [ 16, 16, 7, 7.75 ], "rotation": 180, "texture": "#up" },
        "up":    { "uv": [ 0, 0, 16, 16 ], "rotation": 90, "texture": "#up" },
        "north": { "uv": [ 3, 7, 16, 11 ], "texture": "#up", "cullface": "north" },
        "south": { "uv": [ 2.75, 7, 16, 11 ], "texture": "#up", "cullface": "south" },
        "west":  { "uv": [ 2.75, 7, 16, 11.25 ], "texture": "#up", "cullface": "west" },
        "east":  { "uv": [ 3, 7, 16, 11 ], "texture": "#up", "cullface": "east" }
    }
}
]
}