{
"__comment": "Designed by Carisus with BDcraft Cubik",
"textures": {
    "down": "blocks/log_oak",
    "up": "blocks/cauldron_side",
    "north": "blocks/cauldron_inner",
    "south": "blocks/iron_block",
    "west": "blocks/cauldron_side",
    "east": "blocks/water_still"
},
"elements": [ 
{
    "from": [ 3, 1, 3 ],
    "to": [ 13, 2, 13 ],
    "faces": {
        "down":  { "uv": [ 13, 13, 3, 3 ], "texture": "#north" },
        "up":    { "uv": [ 3, 3, 13, 13 ], "texture": "#north" },
        "north": { "uv": [ 3, 14, 13, 15 ], "texture": "#north" },
        "south": { "uv": [ 3, 14, 13, 15 ], "texture": "#north" },
        "west":  { "uv": [ 3, 14, 13, 15 ], "texture": "#north" },
        "east":  { "uv": [ 3, 14, 13, 15 ], "texture": "#north" }
    }
},
{
    "from": [ 3, 2, 3 ],
    "to": [ 4, 11, 4 ],
    "faces": {
        "down":  { "uv": [ 13, 4, 12, 3 ], "texture": "#up" },
        "up":    { "uv": [ 3, 3, 4, 4 ], "texture": "#up" },
        "north": { "uv": [ 11, 2, 12, 11 ], "texture": "#up" },
        "south": { "uv": [ 5, 2.5, 6, 11.5 ], "texture": "#up" },
        "west":  { "uv": [ 4, 0, 5, 9 ], "texture": "#up" },
        "east":  { "uv": [ 11, 0, 12, 9 ], "texture": "#up" }
    }
},
{
    "from": [ 3, 2, 12 ],
    "to": [ 4, 11, 13 ],
    "faces": {
        "down":  { "uv": [ 13, 4, 12, 3 ], "texture": "#up" },
        "up":    { "uv": [ 3, 3, 4, 4 ], "texture": "#up" },
        "north": { "uv": [ 11, 2, 12, 11 ], "texture": "#up" },
        "south": { "uv": [ 5, 2.5, 6, 11.5 ], "texture": "#up" },
        "west":  { "uv": [ 4, 0, 5, 9 ], "texture": "#up" },
        "east":  { "uv": [ 11, 0, 12, 9 ], "texture": "#up" }
    }
},
{
    "from": [ 12, 2, 12 ],
    "to": [ 13, 11, 13 ],
    "faces": {
        "down":  { "uv": [ 13, 4, 12, 3 ], "texture": "#up" },
        "up":    { "uv": [ 3, 3, 4, 4 ], "texture": "#up" },
        "north": { "uv": [ 11, 2, 12, 11 ], "texture": "#up" },
        "south": { "uv": [ 5, 2.5, 6, 11.5 ], "texture": "#up" },
        "west":  { "uv": [ 4, 0, 5, 9 ], "texture": "#up" },
        "east":  { "uv": [ 11, 0, 12, 9 ], "texture": "#up" }
    }
},
{
    "from": [ 12, 2, 3 ],
    "to": [ 13, 11, 4 ],
    "faces": {
        "down":  { "uv": [ 13, 4, 12, 3 ], "texture": "#up" },
        "up":    { "uv": [ 3, 3, 4, 4 ], "texture": "#up" },
        "north": { "uv": [ 11, 2, 12, 11 ], "texture": "#up" },
        "south": { "uv": [ 5, 2.5, 6, 11.5 ], "texture": "#up" },
        "west":  { "uv": [ 4, 0, 5, 9 ], "texture": "#up" },
        "east":  { "uv": [ 11, 0, 12, 9 ], "texture": "#up" }
    }
},
{
    "from": [ 4, 2, 12.5 ],
    "to": [ 12, 11, 13 ],
    "faces": {
        "down":  { "uv": [ 12.5, 15.5, 4.5, 15 ], "texture": "#west" },
        "up":    { "uv": [ 2.5, 0, 10.5, 0.5 ], "texture": "#west" },
        "north": { "uv": [ 3, 3.5, 11, 12.5 ], "texture": "#west" },
        "south": { "uv": [ 4, 3, 12, 12 ], "texture": "#west" },
        "west":  { "uv": [ 15.5, 3.5, 16, 12.5 ], "texture": "#west" },
        "east":  { "uv": [ 0, 5, 0.5, 14 ], "texture": "#west" }
    }
},
{
    "from": [ 4, 2, 3 ],
    "to": [ 12, 11, 3.5 ],
    "faces": {
        "down":  { "uv": [ 12.5, 15.5, 4.5, 15 ], "texture": "#west" },
        "up":    { "uv": [ 2.5, 0, 10.5, 0.5 ], "texture": "#west" },
        "north": { "uv": [ 3, 3.5, 11, 12.5 ], "texture": "#west" },
        "south": { "uv": [ 4, 3, 12, 12 ], "texture": "#west" },
        "west":  { "uv": [ 15.5, 3.5, 16, 12.5 ], "texture": "#west" },
        "east":  { "uv": [ 0, 5, 0.5, 14 ], "texture": "#west" }
    }
},
{
    "from": [ 3, 2, 4 ],
    "to": [ 3.5, 11, 12 ],
    "faces": {
        "down":  { "uv": [ 16, 14, 15.5, 6 ], "texture": "#west" },
        "up":    { "uv": [ 9.5, 0, 10, 8 ], "texture": "#west" },
        "north": { "uv": [ 15.5, 3.5, 16, 12.5 ], "texture": "#west" },
        "south": { "uv": [ 15.5, 4.5, 16, 13.5 ], "texture": "#west" },
        "west":  { "uv": [ 3, 3.5, 11, 12.5 ], "texture": "#west" },
        "east":  { "uv": [ 4, 3, 12, 12 ], "texture": "#west" }
    }
},
{
    "from": [ 12.5, 2, 4 ],
    "to": [ 13, 11, 12 ],
    "faces": {
        "down":  { "uv": [ 16, 14, 15.5, 6 ], "texture": "#west" },
        "up":    { "uv": [ 9.5, 0, 10, 8 ], "texture": "#west" },
        "north": { "uv": [ 15.5, 3.5, 16, 12.5 ], "texture": "#west" },
        "south": { "uv": [ 15.5, 4.5, 16, 13.5 ], "texture": "#west" },
        "west":  { "uv": [ 3, 3.5, 11, 12.5 ], "texture": "#west" },
        "east":  { "uv": [ 4, 3, 12, 12 ], "texture": "#west" }
    }
},
{
    "from": [ 3.5, 2, 3.5 ],
    "to": [ 12.5, 6.5, 12.5 ],
    "faces": {
        "down":  { "uv": [ 12.5, 12.5, 3.5, 3.5 ], "texture": "#east" },
        "up":    { "uv": [ 3.5, 3.5, 12.5, 12.5 ], "texture": "#east" },
        "north": { "uv": [ 3.5, 9.5, 12.5, 14 ], "texture": "#east" },
        "south": { "uv": [ 3.5, 9.5, 12.5, 14 ], "texture": "#east" },
        "west":  { "uv": [ 3.5, 9.5, 12.5, 14 ], "texture": "#east" },
        "east":  { "uv": [ 3.5, 9.5, 12.5, 14 ], "texture": "#east" }
    }
},
{
    "from": [ 7.44134, 9.5, 13 ],
    "to": [ 14.4413, 10, 13.5 ],
    "rotation": { "origin": [ 7.44134, 10, 13 ], "axis": "z", "angle": -22.5 },
    "faces": {
        "down":  { "uv": [ 9, 13.5, 2, 13 ], "texture": "#south" },
        "up":    { "uv": [ 7, 13, 14, 13.5 ], "texture": "#south" },
        "north": { "uv": [ 2, 6, 9, 6.5 ], "texture": "#south" },
        "south": { "uv": [ 7, 6, 14, 6.5 ], "texture": "#south" },
        "west":  { "uv": [ 13, 6, 13.5, 6.5 ], "texture": "#south" },
        "east":  { "uv": [ 2.5, 6, 3, 6.5 ], "texture": "#south" }
    }
},
{
    "from": [ 7.44134, 9.5, 2.5 ],
    "to": [ 14.4413, 10, 3 ],
    "rotation": { "origin": [ 7.44134, 10, 2.5 ], "axis": "z", "angle": -22.5 },
    "faces": {
        "down":  { "uv": [ 9, 13.5, 2, 13 ], "texture": "#south" },
        "up":    { "uv": [ 7, 13, 14, 13.5 ], "texture": "#south" },
        "north": { "uv": [ 2, 6, 9, 6.5 ], "texture": "#south" },
        "south": { "uv": [ 7, 6, 14, 6.5 ], "texture": "#south" },
        "west":  { "uv": [ 13, 6, 13.5, 6.5 ], "texture": "#south" },
        "east":  { "uv": [ 2.5, 6, 3, 6.5 ], "texture": "#south" }
    }
},
{
    "from": [ 13.4413, 7, 3 ],
    "to": [ 13.9413, 7.5, 13 ],
    "rotation": { "origin": [ 13.4413, 7.5, 3 ], "axis": "z", "angle": -22.5 },
    "faces": {
        "down":  { "uv": [ 9, 13.5, 2, 13 ], "texture": "#south" },
        "up":    { "uv": [ 7, 13, 14, 13.5 ], "texture": "#south" },
        "north": { "uv": [ 2, 6, 9, 6.5 ], "texture": "#south" },
        "south": { "uv": [ 7, 6, 14, 6.5 ], "texture": "#south" },
        "west":  { "uv": [ 13, 6, 13.5, 6.5 ], "texture": "#south" },
        "east":  { "uv": [ 2.5, 6, 3, 6.5 ], "texture": "#south" }
    }
},
{
    "from": [ 3, 0, 3 ],
    "to": [ 4, 1, 4 ],
    "faces": {
        "down":  { "uv": [ 13, 4, 12, 3 ], "texture": "#up" },
        "up":    { "uv": [ 3, 3, 4, 4 ], "texture": "#up" },
        "north": { "uv": [ 12, 15, 13, 16 ], "texture": "#up" },
        "south": { "uv": [ 3, 15, 4, 16 ], "texture": "#up" },
        "west":  { "uv": [ 3, 15, 4, 16 ], "texture": "#up" },
        "east":  { "uv": [ 12, 15, 13, 16 ], "texture": "#up" }
    }
},
{
    "from": [ 3, 0, 12 ],
    "to": [ 4, 1, 13 ],
    "faces": {
        "down":  { "uv": [ 13, 13, 12, 12 ], "texture": "#up" },
        "up":    { "uv": [ 3, 12, 4, 13 ], "texture": "#up" },
        "north": { "uv": [ 12, 15, 13, 16 ], "texture": "#up" },
        "south": { "uv": [ 3, 15, 4, 16 ], "texture": "#up" },
        "west":  { "uv": [ 12, 15, 13, 16 ], "texture": "#up" },
        "east":  { "uv": [ 3, 15, 4, 16 ], "texture": "#up" }
    }
},
{
    "from": [ 12, 0, 12 ],
    "to": [ 13, 1, 13 ],
    "faces": {
        "down":  { "uv": [ 4, 13, 3, 12 ], "texture": "#up" },
        "up":    { "uv": [ 12, 12, 13, 13 ], "texture": "#up" },
        "north": { "uv": [ 3, 15, 4, 16 ], "texture": "#up" },
        "south": { "uv": [ 12, 15, 13, 16 ], "texture": "#up" },
        "west":  { "uv": [ 12, 15, 13, 16 ], "texture": "#up" },
        "east":  { "uv": [ 3, 15, 4, 16 ], "texture": "#up" }
    }
},
{
    "from": [ 12, 0, 3 ],
    "to": [ 13, 1, 4 ],
    "faces": {
        "down":  { "uv": [ 4, 4, 3, 3 ], "texture": "#up" },
        "up":    { "uv": [ 12, 3, 13, 4 ], "texture": "#up" },
        "north": { "uv": [ 3, 15, 4, 16 ], "texture": "#up" },
        "south": { "uv": [ 12, 15, 13, 16 ], "texture": "#up" },
        "west":  { "uv": [ 3, 15, 4, 16 ], "texture": "#up" },
        "east":  { "uv": [ 12, 15, 13, 16 ], "texture": "#up" }
    }
}
]
}