{
"__comment": "Designed by Carisus with BDcraft Cubik",
"textures": {
    "particle": "blocks/emerald_ore",
    "down": "blocks/emerald_ore",
    "up": "blocks/stone"
},
"elements": [ 
{
    "from": [ 0, 0, 0 ],
    "to": [ 16, 16, 16 ],
    "faces": {
        "down":  { "uv": [ 16, 16, 0, 0 ], "texture": "#up", "cullface": "down" },
        "up":    { "uv": [ 0, 0, 16, 16 ], "texture": "#up", "cullface": "up" },
        "north": { "uv": [ 0, 0, 16, 16 ], "texture": "#up", "cullface": "north" },
        "south": { "uv": [ 0, 0, 16, 16 ], "texture": "#up", "cullface": "south" },
        "west":  { "uv": [ 0, 0, 16, 16 ], "texture": "#up", "cullface": "west" },
        "east":  { "uv": [ 0, 0, 16, 16 ], "texture": "#up", "cullface": "east" }
    }
},
{
    "from": [ 8.5, 14.5, -0.5 ],
    "to": [ 9.5, 15, 0 ],
    "faces": {
        "up":    { "uv": [ 6.5, 1, 7.5, 1.5 ], "texture": "#down", "cullface": "north" },
        "north": { "uv": [ 6.5, 1, 7.5, 1.5 ], "texture": "#down", "cullface": "north" },
        "west":  { "uv": [ 7, 1, 7.5, 1.5 ], "texture": "#down", "cullface": "north" },
        "east":  { "uv": [ 6.5, 1, 7, 1.5 ], "texture": "#down", "cullface": "north" }
    }
},
{
    "from": [ 8, 14, -0.5 ],
    "to": [ 10, 14.5, 0 ],
    "faces": {
        "up":    { "uv": [ 6, 1.5, 8, 2 ], "texture": "#down", "cullface": "north" },
        "north": { "uv": [ 6, 1.5, 8, 2 ], "texture": "#down", "cullface": "north" },
        "west":  { "uv": [ 7.5, 1.5, 8, 2 ], "texture": "#down", "cullface": "north" },
        "east":  { "uv": [ 6, 1.5, 6.5, 2 ], "texture": "#down", "cullface": "north" }
    }
},
{
    "from": [ 8, 13.5, -0.5 ],
    "to": [ 10, 14, 0 ],
    "faces": {
        "down":  { "uv": [ 8, 2.5, 6, 2 ], "texture": "#down", "cullface": "north" },
        "north": { "uv": [ 6, 2, 8, 2.5 ], "texture": "#down", "cullface": "north" },
        "west":  { "uv": [ 7.5, 2, 8, 2.5 ], "texture": "#down", "cullface": "north" },
        "east":  { "uv": [ 6, 2, 6.5, 2.5 ], "texture": "#down", "cullface": "north" }
    }
},
{
    "from": [ 8.5, 13, -0.5 ],
    "to": [ 9.5, 13.5, 0 ],
    "faces": {
        "down":  { "uv": [ 7.5, 3, 6.5, 2.5 ], "texture": "#down", "cullface": "north" },
        "north": { "uv": [ 6.5, 2.5, 7.5, 3 ], "texture": "#down", "cullface": "north" },
        "west":  { "uv": [ 6.5, 2.5, 7, 3 ], "texture": "#down", "cullface": "north" },
        "east":  { "uv": [ 6.5, 2.5, 7, 3 ], "texture": "#down", "cullface": "north" }
    }
},
{
    "from": [ 10.5, 11.5, -0.5 ],
    "to": [ 11.5, 12, 0 ],
    "faces": {
        "up":    { "uv": [ 4.5, 4, 5.5, 4.5 ], "texture": "#down", "cullface": "north" },
        "north": { "uv": [ 4.5, 4, 5.5, 4.5 ], "texture": "#down", "cullface": "north" },
        "west":  { "uv": [ 4.5, 4, 5, 4.5 ], "texture": "#down", "cullface": "north" },
        "east":  { "uv": [ 5, 4, 5.5, 4.5 ], "texture": "#down", "cullface": "north" }
    }
},
{
    "from": [ 10, 11, -0.5 ],
    "to": [ 12, 11.5, 0 ],
    "faces": {
        "up":    { "uv": [ 4, 4.5, 6, 5 ], "texture": "#down", "cullface": "north" },
        "north": { "uv": [ 4, 4.5, 6, 5 ], "texture": "#down", "cullface": "north" },
        "west":  { "uv": [ 5.5, 4.5, 6, 5 ], "texture": "#down", "cullface": "north" },
        "east":  { "uv": [ 4, 4.5, 4.5, 5 ], "texture": "#down", "cullface": "north" }
    }
},
{
    "from": [ 10, 10.5, -0.5 ],
    "to": [ 12, 11, 0 ],
    "faces": {
        "down":  { "uv": [ 6, 5.5, 4, 5 ], "texture": "#down", "cullface": "north" },
        "north": { "uv": [ 4, 5, 6, 5.5 ], "texture": "#down", "cullface": "north" },
        "west":  { "uv": [ 5.5, 5, 6, 5.5 ], "texture": "#down", "cullface": "north" },
        "east":  { "uv": [ 4, 5, 4.5, 5.5 ], "texture": "#down", "cullface": "north" }
    }
},
{
    "from": [ 10.5, 10, -0.5 ],
    "to": [ 11.5, 10.5, 0 ],
    "faces": {
        "down":  { "uv": [ 5.5, 6, 4.5, 5.5 ], "texture": "#down", "cullface": "north" },
        "north": { "uv": [ 4.5, 5.5, 5.5, 6 ], "texture": "#down", "cullface": "north" },
        "west":  { "uv": [ 4.5, 5.5, 5, 6 ], "texture": "#down", "cullface": "north" },
        "east":  { "uv": [ 4.5, 5.5, 5, 6 ], "texture": "#down", "cullface": "north" }
    }
},
{
    "from": [ 8, 9.5, -0.5 ],
    "to": [ 10, 10.5, 0 ],
    "faces": {
        "down":  { "uv": [ 8, 6.5, 6, 6 ], "texture": "#down", "cullface": "north" },
        "up":    { "uv": [ 6, 5.5, 8, 6 ], "texture": "#down", "cullface": "north" },
        "north": { "uv": [ 6, 5.5, 8, 6.5 ], "texture": "#down", "cullface": "north" },
        "west":  { "uv": [ 7.5, 5.5, 8, 6.5 ], "texture": "#down", "cullface": "north" },
        "east":  { "uv": [ 6, 5.5, 6.5, 6.5 ], "texture": "#down", "cullface": "north" }
    }
},
{
    "from": [ 8.5, 10.5, -0.5 ],
    "to": [ 9.5, 11, 0 ],
    "faces": {
        "up":    { "uv": [ 6.5, 5, 7.5, 5.5 ], "texture": "#down", "cullface": "north" },
        "north": { "uv": [ 6.5, 5, 7.5, 5.5 ], "texture": "#down", "cullface": "north" },
        "west":  { "uv": [ 7, 5, 7.5, 5.5 ], "texture": "#down", "cullface": "north" },
        "east":  { "uv": [ 6.5, 5, 7, 5.5 ], "texture": "#down", "cullface": "north" }
    }
},
{
    "from": [ 8.5, 9, -0.5 ],
    "to": [ 9.5, 9.5, 0 ],
    "faces": {
        "down":  { "uv": [ 7.5, 7, 6.5, 6.5 ], "texture": "#down", "cullface": "north" },
        "north": { "uv": [ 6.5, 6.5, 7.5, 7 ], "texture": "#down", "cullface": "north" },
        "west":  { "uv": [ 7, 6.5, 7.5, 7 ], "texture": "#down", "cullface": "north" },
        "east":  { "uv": [ 7, 6.5, 7.5, 7 ], "texture": "#down", "cullface": "north" }
    }
},
{
    "from": [ 2.5, 11, -0.5 ],
    "to": [ 3.5, 13, 0 ],
    "faces": {
        "down":  { "uv": [ 13.5, 5, 12.5, 4.5 ], "texture": "#down", "cullface": "north" },
        "up":    { "uv": [ 12.5, 3, 13.5, 3.5 ], "texture": "#down", "cullface": "north" },
        "north": { "uv": [ 12.5, 3, 13.5, 5 ], "texture": "#down", "cullface": "north" },
        "west":  { "uv": [ 13, 3, 13.5, 5 ], "texture": "#down", "cullface": "north" },
        "east":  { "uv": [ 12.5, 3, 13, 5 ], "texture": "#down", "cullface": "north" }
    }
},
{
    "from": [ 3.5, 11.5, -0.5 ],
    "to": [ 4, 12.5, 0 ],
    "faces": {
        "down":  { "uv": [ 12.5, 4.5, 12, 4 ], "texture": "#down", "cullface": "north" },
        "up":    { "uv": [ 12, 3.5, 12.5, 4 ], "texture": "#down", "cullface": "north" },
        "north": { "uv": [ 12, 3.5, 12.5, 4.5 ], "texture": "#down", "cullface": "north" },
        "east":  { "uv": [ 12, 3.5, 12.5, 4.5 ], "texture": "#down", "cullface": "north" }
    }
},
{
    "from": [ 2, 11.5, -0.5 ],
    "to": [ 2.5, 12.5, 0 ],
    "faces": {
        "down":  { "uv": [ 14, 4.5, 13.5, 4 ], "texture": "#down", "cullface": "north" },
        "up":    { "uv": [ 13.5, 3.5, 14, 4 ], "texture": "#down", "cullface": "north" },
        "north": { "uv": [ 13.5, 3.5, 14, 4.5 ], "texture": "#down", "cullface": "north" },
        "west":  { "uv": [ 13.5, 3.5, 14, 4.5 ], "texture": "#down", "cullface": "north" }
    }
},
{
    "from": [ 8.5, 6, -0.5 ],
    "to": [ 9.5, 8, 0 ],
    "faces": {
        "down":  { "uv": [ 7.5, 10, 6.5, 9.5 ], "texture": "#down", "cullface": "north" },
        "up":    { "uv": [ 6.5, 8, 7.5, 8.5 ], "texture": "#down", "cullface": "north" },
        "north": { "uv": [ 6.5, 8, 7.5, 10 ], "texture": "#down", "cullface": "north" },
        "west":  { "uv": [ 7, 8, 7.5, 10 ], "texture": "#down", "cullface": "north" },
        "east":  { "uv": [ 6.5, 8, 7, 10 ], "texture": "#down", "cullface": "north" }
    }
},
{
    "from": [ 9.5, 6.5, -0.5 ],
    "to": [ 10, 7.5, 0 ],
    "faces": {
        "down":  { "uv": [ 6.5, 6, 6, 5.5 ], "texture": "#down", "cullface": "north" },
        "up":    { "uv": [ 6, 8.5, 6.5, 9 ], "texture": "#down", "cullface": "north" },
        "north": { "uv": [ 6, 8.5, 6.5, 9.5 ], "texture": "#down", "cullface": "north" },
        "east":  { "uv": [ 6, 8.5, 6.5, 9.5 ], "texture": "#down", "cullface": "north" }
    }
},
{
    "from": [ 8, 6.5, -0.5 ],
    "to": [ 8.5, 7.5, 0 ],
    "faces": {
        "down":  { "uv": [ 8, 6.5, 7.5, 6 ], "texture": "#down", "cullface": "north" },
        "up":    { "uv": [ 7.5, 5.5, 8, 6 ], "texture": "#down", "cullface": "north" },
        "north": { "uv": [ 7.5, 8.5, 8, 9.5 ], "texture": "#down", "cullface": "north" },
        "west":  { "uv": [ 7.5, 8.5, 8, 9.5 ], "texture": "#down", "cullface": "north" }
    }
},
{
    "from": [ 4.5, 5, -0.5 ],
    "to": [ 5.5, 7, 0 ],
    "faces": {
        "down":  { "uv": [ 11.5, 11, 10.5, 10.5 ], "texture": "#down", "cullface": "north" },
        "up":    { "uv": [ 10.5, 9, 11.5, 9.5 ], "texture": "#down", "cullface": "north" },
        "north": { "uv": [ 10.5, 9, 11.5, 11 ], "texture": "#down", "cullface": "north" },
        "west":  { "uv": [ 11, 9, 11.5, 11 ], "texture": "#down", "cullface": "north" },
        "east":  { "uv": [ 10.5, 9, 11, 11 ], "texture": "#down", "cullface": "north" }
    }
},
{
    "from": [ 5.5, 5.5, -0.5 ],
    "to": [ 6, 6.5, 0 ],
    "faces": {
        "down":  { "uv": [ 10.5, 10, 10, 9.5 ], "texture": "#down", "cullface": "north" },
        "up":    { "uv": [ 10, 9.5, 10.5, 10 ], "texture": "#down", "cullface": "north" },
        "north": { "uv": [ 10, 9.5, 10.5, 10.5 ], "texture": "#down", "cullface": "north" },
        "east":  { "uv": [ 10, 9.5, 10.5, 10.5 ], "texture": "#down", "cullface": "north" }
    }
},
{
    "from": [ 4, 5.5, -0.5 ],
    "to": [ 4.5, 6.5, 0 ],
    "faces": {
        "down":  { "uv": [ 12, 10, 11.5, 9.5 ], "texture": "#down", "cullface": "north" },
        "up":    { "uv": [ 11.5, 9.5, 12, 10 ], "texture": "#down", "cullface": "north" },
        "north": { "uv": [ 11.5, 9.5, 12, 10.5 ], "texture": "#down", "cullface": "north" },
        "west":  { "uv": [ 11.5, 9.5, 12, 10.5 ], "texture": "#down", "cullface": "north" }
    }
},
{
    "from": [ 1.5, 4, -0.5 ],
    "to": [ 2.5, 6, 0 ],
    "faces": {
        "down":  { "uv": [ 14.5, 12, 13.5, 11.5 ], "texture": "#down", "cullface": "north" },
        "up":    { "uv": [ 13.5, 10, 14.5, 10.5 ], "texture": "#down", "cullface": "north" },
        "north": { "uv": [ 13.5, 10, 14.5, 12 ], "texture": "#down", "cullface": "north" },
        "west":  { "uv": [ 14, 10, 14.5, 12 ], "texture": "#down", "cullface": "north" },
        "east":  { "uv": [ 13.5, 10, 14, 12 ], "texture": "#down", "cullface": "north" }
    }
},
{
    "from": [ 1, 4.5, -0.5 ],
    "to": [ 1.5, 5.5, 0 ],
    "faces": {
        "down":  { "uv": [ 15, 11.5, 14.5, 11 ], "texture": "#down", "cullface": "north" },
        "up":    { "uv": [ 14.5, 10.5, 15, 11 ], "texture": "#down", "cullface": "north" },
        "north": { "uv": [ 14.5, 10.5, 15, 11.5 ], "texture": "#down", "cullface": "north" },
        "west":  { "uv": [ 14.5, 10.5, 15, 11.5 ], "texture": "#down", "cullface": "north" }
    }
},
{
    "from": [ 2.5, 4.5, -0.5 ],
    "to": [ 3, 5.5, 0 ],
    "faces": {
        "down":  { "uv": [ 13.5, 11, 13, 10.5 ], "texture": "#down", "cullface": "north" },
        "up":    { "uv": [ 13, 11, 13.5, 11.5 ], "texture": "#down", "cullface": "north" },
        "north": { "uv": [ 13, 10.5, 13.5, 11.5 ], "texture": "#down", "cullface": "north" },
        "east":  { "uv": [ 13, 10.5, 13.5, 11.5 ], "texture": "#down", "cullface": "north" }
    }
},
{
    "from": [ 7.5, 3, -0.5 ],
    "to": [ 8.5, 5, 0 ],
    "faces": {
        "down":  { "uv": [ 8.5, 13, 7.5, 12.5 ], "texture": "#down", "cullface": "north" },
        "up":    { "uv": [ 7.5, 11, 8.5, 11.5 ], "texture": "#down", "cullface": "north" },
        "north": { "uv": [ 7.5, 11, 8.5, 13 ], "texture": "#down", "cullface": "north" },
        "west":  { "uv": [ 8, 11, 8.5, 13 ], "texture": "#down", "cullface": "north" },
        "east":  { "uv": [ 7.5, 11, 8, 13 ], "texture": "#down", "cullface": "north" }
    }
},
{
    "from": [ 8.5, 3.5, -0.5 ],
    "to": [ 9, 4.5, 0 ],
    "faces": {
        "down":  { "uv": [ 7.5, 12.5, 7, 12 ], "texture": "#down", "cullface": "north" },
        "up":    { "uv": [ 7, 11.5, 7.5, 12 ], "texture": "#down", "cullface": "north" },
        "north": { "uv": [ 7, 11.5, 7.5, 12.5 ], "texture": "#down", "cullface": "north" },
        "east":  { "uv": [ 7, 11.5, 7.5, 12.5 ], "texture": "#down", "cullface": "north" }
    }
},
{
    "from": [ 7, 3.5, -0.5 ],
    "to": [ 7.5, 4.5, 0 ],
    "faces": {
        "down":  { "uv": [ 12, 10.5, 11.5, 10 ], "texture": "#down", "cullface": "north" },
        "up":    { "uv": [ 11.5, 9.5, 12, 10 ], "texture": "#down", "cullface": "north" },
        "north": { "uv": [ 8.5, 11.5, 9, 12.5 ], "texture": "#down", "cullface": "north" },
        "west":  { "uv": [ 8.5, 11.5, 9, 12.5 ], "texture": "#down", "cullface": "north" }
    }
},
{
    "from": [ 13.5, 1, -0.5 ],
    "to": [ 14.5, 3, 0 ],
    "faces": {
        "down":  { "uv": [ 2.5, 15, 1.5, 14.5 ], "texture": "#down", "cullface": "north" },
        "up":    { "uv": [ 1.5, 13, 2.5, 13.5 ], "texture": "#down", "cullface": "north" },
        "north": { "uv": [ 1.5, 13, 2.5, 15 ], "texture": "#down", "cullface": "north" },
        "west":  { "uv": [ 2, 13, 2.5, 15 ], "texture": "#down", "cullface": "north" },
        "east":  { "uv": [ 1.5, 13, 2, 15 ], "texture": "#down", "cullface": "north" }
    }
},
{
    "from": [ 14.5, 1.5, -0.5 ],
    "to": [ 15, 2.5, 0 ],
    "faces": {
        "down":  { "uv": [ 1.5, 14, 1, 13.5 ], "texture": "#down", "cullface": "north" },
        "up":    { "uv": [ 1, 13.5, 1.5, 14 ], "texture": "#down", "cullface": "north" },
        "north": { "uv": [ 1, 13.5, 1.5, 14.5 ], "texture": "#down", "cullface": "north" },
        "east":  { "uv": [ 1, 13.5, 1.5, 14.5 ], "texture": "#down", "cullface": "north" }
    }
},
{
    "from": [ 13, 1.5, -0.5 ],
    "to": [ 13.5, 2.5, 0 ],
    "faces": {
        "down":  { "uv": [ 3, 14, 2.5, 13.5 ], "texture": "#down", "cullface": "north" },
        "up":    { "uv": [ 2.5, 13.5, 3, 14 ], "texture": "#down", "cullface": "north" },
        "north": { "uv": [ 2.5, 13.5, 3, 14.5 ], "texture": "#down", "cullface": "north" },
        "west":  { "uv": [ 2.5, 13.5, 3, 14.5 ], "texture": "#down", "cullface": "north" }
    }
},
{
    "from": [ 16, 14.5, 8.5 ],
    "to": [ 16.5, 15, 9.5 ],
    "faces": {
        "up":    { "uv": [ 6.5, 1, 7.5, 1.5 ], "rotation": 90, "texture": "#down", "cullface": "east" },
        "north": { "uv": [ 7, 1, 7.5, 1.5 ], "texture": "#down", "cullface": "east" },
        "south": { "uv": [ 6.5, 1, 7, 1.5 ], "texture": "#down", "cullface": "east" },
        "east":  { "uv": [ 6.5, 1, 7.5, 1.5 ], "texture": "#down", "cullface": "east" }
    }
},
{
    "from": [ 16, 14, 8 ],
    "to": [ 16.5, 14.5, 10 ],
    "faces": {
        "up":    { "uv": [ 6, 1.5, 8, 2 ], "rotation": 90, "texture": "#down", "cullface": "east" },
        "north": { "uv": [ 7.5, 1.5, 8, 2 ], "texture": "#down", "cullface": "east" },
        "south": { "uv": [ 6, 1.5, 6.5, 2 ], "texture": "#down", "cullface": "east" },
        "east":  { "uv": [ 6, 1.5, 8, 2 ], "texture": "#down", "cullface": "east" }
    }
},
{
    "from": [ 16, 13.5, 8 ],
    "to": [ 16.5, 14, 10 ],
    "faces": {
        "down":  { "uv": [ 8, 2.5, 6, 2 ], "rotation": 270, "texture": "#down", "cullface": "east" },
        "north": { "uv": [ 7.5, 2, 8, 2.5 ], "texture": "#down", "cullface": "east" },
        "south": { "uv": [ 6, 2, 6.5, 2.5 ], "texture": "#down", "cullface": "east" },
        "east":  { "uv": [ 6, 2, 8, 2.5 ], "texture": "#down", "cullface": "east" }
    }
},
{
    "from": [ 16, 13, 8.5 ],
    "to": [ 16.5, 13.5, 9.5 ],
    "faces": {
        "down":  { "uv": [ 7.5, 3, 6.5, 2.5 ], "rotation": 270, "texture": "#down", "cullface": "east" },
        "north": { "uv": [ 6.5, 2.5, 7, 3 ], "texture": "#down", "cullface": "east" },
        "south": { "uv": [ 6.5, 2.5, 7, 3 ], "texture": "#down", "cullface": "east" },
        "east":  { "uv": [ 6.5, 2.5, 7.5, 3 ], "texture": "#down", "cullface": "east" }
    }
},
{
    "from": [ 16, 11.5, 10.5 ],
    "to": [ 16.5, 12, 11.5 ],
    "faces": {
        "up":    { "uv": [ 4.5, 4, 5.5, 4.5 ], "rotation": 90, "texture": "#down", "cullface": "east" },
        "north": { "uv": [ 4.5, 4, 5, 4.5 ], "texture": "#down", "cullface": "east" },
        "south": { "uv": [ 5, 4, 5.5, 4.5 ], "texture": "#down", "cullface": "east" },
        "east":  { "uv": [ 4.5, 4, 5.5, 4.5 ], "texture": "#down", "cullface": "east" }
    }
},
{
    "from": [ 16, 11, 10 ],
    "to": [ 16.5, 11.5, 12 ],
    "faces": {
        "up":    { "uv": [ 4, 4.5, 6, 5 ], "rotation": 90, "texture": "#down", "cullface": "east" },
        "north": { "uv": [ 5.5, 4.5, 6, 5 ], "texture": "#down", "cullface": "east" },
        "south": { "uv": [ 4, 4.5, 4.5, 5 ], "texture": "#down", "cullface": "east" },
        "east":  { "uv": [ 4, 4.5, 6, 5 ], "texture": "#down", "cullface": "east" }
    }
},
{
    "from": [ 16, 10.5, 10 ],
    "to": [ 16.5, 11, 12 ],
    "faces": {
        "down":  { "uv": [ 6, 5.5, 4, 5 ], "rotation": 270, "texture": "#down", "cullface": "east" },
        "north": { "uv": [ 5.5, 5, 6, 5.5 ], "texture": "#down", "cullface": "east" },
        "south": { "uv": [ 4, 5, 4.5, 5.5 ], "texture": "#down", "cullface": "east" },
        "east":  { "uv": [ 4, 5, 6, 5.5 ], "texture": "#down", "cullface": "east" }
    }
},
{
    "from": [ 16, 10, 10.5 ],
    "to": [ 16.5, 10.5, 11.5 ],
    "faces": {
        "down":  { "uv": [ 5.5, 6, 4.5, 5.5 ], "rotation": 270, "texture": "#down", "cullface": "east" },
        "north": { "uv": [ 4.5, 5.5, 5, 6 ], "texture": "#down", "cullface": "east" },
        "south": { "uv": [ 4.5, 5.5, 5, 6 ], "texture": "#down", "cullface": "east" },
        "east":  { "uv": [ 4.5, 5.5, 5.5, 6 ], "texture": "#down", "cullface": "east" }
    }
},
{
    "from": [ 16, 9.5, 8 ],
    "to": [ 16.5, 10.5, 10 ],
    "faces": {
        "down":  { "uv": [ 8, 6.5, 6, 6 ], "rotation": 270, "texture": "#down", "cullface": "east" },
        "up":    { "uv": [ 6, 5.5, 8, 6 ], "rotation": 90, "texture": "#down", "cullface": "east" },
        "north": { "uv": [ 7.5, 5.5, 8, 6.5 ], "texture": "#down", "cullface": "east" },
        "south": { "uv": [ 6, 5.5, 6.5, 6.5 ], "texture": "#down", "cullface": "east" },
        "east":  { "uv": [ 6, 5.5, 8, 6.5 ], "texture": "#down", "cullface": "east" }
    }
},
{
    "from": [ 16, 10.5, 8.5 ],
    "to": [ 16.5, 11, 9.5 ],
    "faces": {
        "up":    { "uv": [ 6.5, 5, 7.5, 5.5 ], "rotation": 90, "texture": "#down", "cullface": "east" },
        "north": { "uv": [ 7, 5, 7.5, 5.5 ], "texture": "#down", "cullface": "east" },
        "south": { "uv": [ 6.5, 5, 7, 5.5 ], "texture": "#down", "cullface": "east" },
        "east":  { "uv": [ 6.5, 5, 7.5, 5.5 ], "texture": "#down", "cullface": "east" }
    }
},
{
    "from": [ 16, 9, 8.5 ],
    "to": [ 16.5, 9.5, 9.5 ],
    "faces": {
        "down":  { "uv": [ 7.5, 7, 6.5, 6.5 ], "rotation": 270, "texture": "#down", "cullface": "east" },
        "north": { "uv": [ 7, 6.5, 7.5, 7 ], "texture": "#down", "cullface": "east" },
        "south": { "uv": [ 7, 6.5, 7.5, 7 ], "texture": "#down", "cullface": "east" },
        "east":  { "uv": [ 6.5, 6.5, 7.5, 7 ], "texture": "#down", "cullface": "east" }
    }
},
{
    "from": [ 16, 11, 2.5 ],
    "to": [ 16.5, 13, 3.5 ],
    "faces": {
        "down":  { "uv": [ 13.5, 5, 12.5, 4.5 ], "rotation": 270, "texture": "#down", "cullface": "east" },
        "up":    { "uv": [ 12.5, 3, 13.5, 3.5 ], "rotation": 90, "texture": "#down", "cullface": "east" },
        "north": { "uv": [ 13, 3, 13.5, 5 ], "texture": "#down", "cullface": "east" },
        "south": { "uv": [ 12.5, 3, 13, 5 ], "texture": "#down", "cullface": "east" },
        "east":  { "uv": [ 12.5, 3, 13.5, 5 ], "texture": "#down", "cullface": "east" }
    }
},
{
    "from": [ 16, 11.5, 3.5 ],
    "to": [ 16.5, 12.5, 4 ],
    "faces": {
        "down":  { "uv": [ 12.5, 4.5, 12, 4 ], "rotation": 270, "texture": "#down", "cullface": "east" },
        "up":    { "uv": [ 12, 3.5, 12.5, 4 ], "rotation": 90, "texture": "#down", "cullface": "east" },
        "south": { "uv": [ 12, 3.5, 12.5, 4.5 ], "texture": "#down", "cullface": "east" },
        "east":  { "uv": [ 12, 3.5, 12.5, 4.5 ], "texture": "#down", "cullface": "east" }
    }
},
{
    "from": [ 16, 11.5, 2 ],
    "to": [ 16.5, 12.5, 2.5 ],
    "faces": {
        "down":  { "uv": [ 14, 4.5, 13.5, 4 ], "rotation": 270, "texture": "#down", "cullface": "east" },
        "up":    { "uv": [ 13.5, 3.5, 14, 4 ], "rotation": 90, "texture": "#down", "cullface": "east" },
        "north": { "uv": [ 13.5, 3.5, 14, 4.5 ], "texture": "#down", "cullface": "east" },
        "east":  { "uv": [ 13.5, 3.5, 14, 4.5 ], "texture": "#down", "cullface": "east" }
    }
},
{
    "from": [ 16, 6, 8.5 ],
    "to": [ 16.5, 8, 9.5 ],
    "faces": {
        "down":  { "uv": [ 7.5, 10, 6.5, 9.5 ], "rotation": 270, "texture": "#down", "cullface": "east" },
        "up":    { "uv": [ 6.5, 8, 7.5, 8.5 ], "rotation": 90, "texture": "#down", "cullface": "east" },
        "north": { "uv": [ 7, 8, 7.5, 10 ], "texture": "#down", "cullface": "east" },
        "south": { "uv": [ 6.5, 8, 7, 10 ], "texture": "#down", "cullface": "east" },
        "east":  { "uv": [ 6.5, 8, 7.5, 10 ], "texture": "#down", "cullface": "east" }
    }
},
{
    "from": [ 16, 6.5, 9.5 ],
    "to": [ 16.5, 7.5, 10 ],
    "faces": {
        "down":  { "uv": [ 6.5, 6, 6, 5.5 ], "rotation": 270, "texture": "#down", "cullface": "east" },
        "up":    { "uv": [ 6, 8.5, 6.5, 9 ], "rotation": 90, "texture": "#down", "cullface": "east" },
        "south": { "uv": [ 6, 8.5, 6.5, 9.5 ], "texture": "#down", "cullface": "east" },
        "east":  { "uv": [ 6, 8.5, 6.5, 9.5 ], "texture": "#down", "cullface": "east" }
    }
},
{
    "from": [ 16, 6.5, 8 ],
    "to": [ 16.5, 7.5, 8.5 ],
    "faces": {
        "down":  { "uv": [ 8, 6.5, 7.5, 6 ], "rotation": 270, "texture": "#down", "cullface": "east" },
        "up":    { "uv": [ 7.5, 5.5, 8, 6 ], "rotation": 90, "texture": "#down", "cullface": "east" },
        "north": { "uv": [ 7.5, 8.5, 8, 9.5 ], "texture": "#down", "cullface": "east" },
        "east":  { "uv": [ 7.5, 8.5, 8, 9.5 ], "texture": "#down", "cullface": "east" }
    }
},
{
    "from": [ 16, 5, 4.5 ],
    "to": [ 16.5, 7, 5.5 ],
    "faces": {
        "down":  { "uv": [ 11.5, 11, 10.5, 10.5 ], "rotation": 270, "texture": "#down", "cullface": "east" },
        "up":    { "uv": [ 10.5, 9, 11.5, 9.5 ], "rotation": 90, "texture": "#down", "cullface": "east" },
        "north": { "uv": [ 11, 9, 11.5, 11 ], "texture": "#down", "cullface": "east" },
        "south": { "uv": [ 10.5, 9, 11, 11 ], "texture": "#down", "cullface": "east" },
        "east":  { "uv": [ 10.5, 9, 11.5, 11 ], "texture": "#down", "cullface": "east" }
    }
},
{
    "from": [ 16, 5.5, 5.5 ],
    "to": [ 16.5, 6.5, 6 ],
    "faces": {
        "down":  { "uv": [ 10.5, 10, 10, 9.5 ], "rotation": 270, "texture": "#down", "cullface": "east" },
        "up":    { "uv": [ 10, 9.5, 10.5, 10 ], "rotation": 90, "texture": "#down", "cullface": "east" },
        "south": { "uv": [ 10, 9.5, 10.5, 10.5 ], "texture": "#down", "cullface": "east" },
        "east":  { "uv": [ 10, 9.5, 10.5, 10.5 ], "texture": "#down", "cullface": "east" }
    }
},
{
    "from": [ 16, 5.5, 4 ],
    "to": [ 16.5, 6.5, 4.5 ],
    "faces": {
        "down":  { "uv": [ 12, 10, 11.5, 9.5 ], "rotation": 270, "texture": "#down", "cullface": "east" },
        "up":    { "uv": [ 11.5, 9.5, 12, 10 ], "rotation": 90, "texture": "#down", "cullface": "east" },
        "north": { "uv": [ 11.5, 9.5, 12, 10.5 ], "texture": "#down", "cullface": "east" },
        "east":  { "uv": [ 11.5, 9.5, 12, 10.5 ], "texture": "#down", "cullface": "east" }
    }
},
{
    "from": [ 16, 4, 1.5 ],
    "to": [ 16.5, 6, 2.5 ],
    "faces": {
        "down":  { "uv": [ 14.5, 12, 13.5, 11.5 ], "rotation": 270, "texture": "#down", "cullface": "east" },
        "up":    { "uv": [ 13.5, 10, 14.5, 10.5 ], "rotation": 90, "texture": "#down", "cullface": "east" },
        "north": { "uv": [ 14, 10, 14.5, 12 ], "texture": "#down", "cullface": "east" },
        "south": { "uv": [ 13.5, 10, 14, 12 ], "texture": "#down", "cullface": "east" },
        "east":  { "uv": [ 13.5, 10, 14.5, 12 ], "texture": "#down", "cullface": "east" }
    }
},
{
    "from": [ 16, 4.5, 1 ],
    "to": [ 16.5, 5.5, 1.5 ],
    "faces": {
        "down":  { "uv": [ 15, 11.5, 14.5, 11 ], "rotation": 270, "texture": "#down", "cullface": "east" },
        "up":    { "uv": [ 14.5, 10.5, 15, 11 ], "rotation": 90, "texture": "#down", "cullface": "east" },
        "north": { "uv": [ 14.5, 10.5, 15, 11.5 ], "texture": "#down", "cullface": "east" },
        "east":  { "uv": [ 14.5, 10.5, 15, 11.5 ], "texture": "#down", "cullface": "east" }
    }
},
{
    "from": [ 16, 4.5, 2.5 ],
    "to": [ 16.5, 5.5, 3 ],
    "faces": {
        "down":  { "uv": [ 13.5, 11, 13, 10.5 ], "rotation": 270, "texture": "#down", "cullface": "east" },
        "up":    { "uv": [ 13, 11, 13.5, 11.5 ], "rotation": 90, "texture": "#down", "cullface": "east" },
        "south": { "uv": [ 13, 10.5, 13.5, 11.5 ], "texture": "#down", "cullface": "east" },
        "east":  { "uv": [ 13, 10.5, 13.5, 11.5 ], "texture": "#down", "cullface": "east" }
    }
},
{
    "from": [ 16, 3, 7.5 ],
    "to": [ 16.5, 5, 8.5 ],
    "faces": {
        "down":  { "uv": [ 8.5, 13, 7.5, 12.5 ], "rotation": 270, "texture": "#down", "cullface": "east" },
        "up":    { "uv": [ 7.5, 11, 8.5, 11.5 ], "rotation": 90, "texture": "#down", "cullface": "east" },
        "north": { "uv": [ 8, 11, 8.5, 13 ], "texture": "#down", "cullface": "east" },
        "south": { "uv": [ 7.5, 11, 8, 13 ], "texture": "#down", "cullface": "east" },
        "east":  { "uv": [ 7.5, 11, 8.5, 13 ], "texture": "#down", "cullface": "east" }
    }
},
{
    "from": [ 16, 3.5, 8.5 ],
    "to": [ 16.5, 4.5, 9 ],
    "faces": {
        "down":  { "uv": [ 7.5, 12.5, 7, 12 ], "rotation": 270, "texture": "#down", "cullface": "east" },
        "up":    { "uv": [ 7, 11.5, 7.5, 12 ], "rotation": 90, "texture": "#down", "cullface": "east" },
        "south": { "uv": [ 7, 11.5, 7.5, 12.5 ], "texture": "#down", "cullface": "east" },
        "east":  { "uv": [ 7, 11.5, 7.5, 12.5 ], "texture": "#down", "cullface": "east" }
    }
},
{
    "from": [ 16, 3.5, 7 ],
    "to": [ 16.5, 4.5, 7.5 ],
    "faces": {
        "down":  { "uv": [ 12, 10.5, 11.5, 10 ], "rotation": 270, "texture": "#down", "cullface": "east" },
        "up":    { "uv": [ 11.5, 9.5, 12, 10 ], "rotation": 90, "texture": "#down", "cullface": "east" },
        "north": { "uv": [ 8.5, 11.5, 9, 12.5 ], "texture": "#down", "cullface": "east" },
        "east":  { "uv": [ 8.5, 11.5, 9, 12.5 ], "texture": "#down", "cullface": "east" }
    }
},
{
    "from": [ 16, 1, 13.5 ],
    "to": [ 16.5, 3, 14.5 ],
    "faces": {
        "down":  { "uv": [ 2.5, 15, 1.5, 14.5 ], "rotation": 270, "texture": "#down", "cullface": "east" },
        "up":    { "uv": [ 1.5, 13, 2.5, 13.5 ], "rotation": 90, "texture": "#down", "cullface": "east" },
        "north": { "uv": [ 2, 13, 2.5, 15 ], "texture": "#down", "cullface": "east" },
        "south": { "uv": [ 1.5, 13, 2, 15 ], "texture": "#down", "cullface": "east" },
        "east":  { "uv": [ 1.5, 13, 2.5, 15 ], "texture": "#down", "cullface": "east" }
    }
},
{
    "from": [ 16, 1.5, 14.5 ],
    "to": [ 16.5, 2.5, 15 ],
    "faces": {
        "down":  { "uv": [ 1.5, 14, 1, 13.5 ], "rotation": 270, "texture": "#down", "cullface": "east" },
        "up":    { "uv": [ 1, 13.5, 1.5, 14 ], "rotation": 90, "texture": "#down", "cullface": "east" },
        "south": { "uv": [ 1, 13.5, 1.5, 14.5 ], "texture": "#down", "cullface": "east" },
        "east":  { "uv": [ 1, 13.5, 1.5, 14.5 ], "texture": "#down", "cullface": "east" }
    }
},
{
    "from": [ 16, 1.5, 13 ],
    "to": [ 16.5, 2.5, 13.5 ],
    "faces": {
        "down":  { "uv": [ 3, 14, 2.5, 13.5 ], "rotation": 270, "texture": "#down", "cullface": "east" },
        "up":    { "uv": [ 2.5, 13.5, 3, 14 ], "rotation": 90, "texture": "#down", "cullface": "east" },
        "north": { "uv": [ 2.5, 13.5, 3, 14.5 ], "texture": "#down", "cullface": "east" },
        "east":  { "uv": [ 2.5, 13.5, 3, 14.5 ], "texture": "#down", "cullface": "east" }
    }
},
{
    "from": [ 6.5, 14.5, 16 ],
    "to": [ 7.5, 15, 16.5 ],
    "faces": {
        "up":    { "uv": [ 6.5, 1, 7.5, 1.5 ], "rotation": 180, "texture": "#down", "cullface": "south" },
        "south": { "uv": [ 6.5, 1, 7.5, 1.5 ], "texture": "#down", "cullface": "south" },
        "west":  { "uv": [ 6.5, 1, 7, 1.5 ], "texture": "#down", "cullface": "south" },
        "east":  { "uv": [ 7, 1, 7.5, 1.5 ], "texture": "#down", "cullface": "south" }
    }
},
{
    "from": [ 6, 14, 16 ],
    "to": [ 8, 14.5, 16.5 ],
    "faces": {
        "up":    { "uv": [ 6, 1.5, 8, 2 ], "rotation": 180, "texture": "#down", "cullface": "south" },
        "south": { "uv": [ 6, 1.5, 8, 2 ], "texture": "#down", "cullface": "south" },
        "west":  { "uv": [ 6, 1.5, 6.5, 2 ], "texture": "#down", "cullface": "south" },
        "east":  { "uv": [ 7.5, 1.5, 8, 2 ], "texture": "#down", "cullface": "south" }
    }
},
{
    "from": [ 6, 13.5, 16 ],
    "to": [ 8, 14, 16.5 ],
    "faces": {
        "down":  { "uv": [ 8, 2.5, 6, 2 ], "rotation": 180, "texture": "#down", "cullface": "south" },
        "south": { "uv": [ 6, 2, 8, 2.5 ], "texture": "#down", "cullface": "south" },
        "west":  { "uv": [ 6, 2, 6.5, 2.5 ], "texture": "#down", "cullface": "south" },
        "east":  { "uv": [ 7.5, 2, 8, 2.5 ], "texture": "#down", "cullface": "south" }
    }
},
{
    "from": [ 6.5, 13, 16 ],
    "to": [ 7.5, 13.5, 16.5 ],
    "faces": {
        "down":  { "uv": [ 7.5, 3, 6.5, 2.5 ], "rotation": 180, "texture": "#down", "cullface": "south" },
        "south": { "uv": [ 6.5, 2.5, 7.5, 3 ], "texture": "#down", "cullface": "south" },
        "west":  { "uv": [ 6.5, 2.5, 7, 3 ], "texture": "#down", "cullface": "south" },
        "east":  { "uv": [ 6.5, 2.5, 7, 3 ], "texture": "#down", "cullface": "south" }
    }
},
{
    "from": [ 4.5, 11.5, 16 ],
    "to": [ 5.5, 12, 16.5 ],
    "faces": {
        "up":    { "uv": [ 4.5, 4, 5.5, 4.5 ], "rotation": 180, "texture": "#down", "cullface": "south" },
        "south": { "uv": [ 4.5, 4, 5.5, 4.5 ], "texture": "#down", "cullface": "south" },
        "west":  { "uv": [ 5, 4, 5.5, 4.5 ], "texture": "#down", "cullface": "south" },
        "east":  { "uv": [ 4.5, 4, 5, 4.5 ], "texture": "#down", "cullface": "south" }
    }
},
{
    "from": [ 4, 11, 16 ],
    "to": [ 6, 11.5, 16.5 ],
    "faces": {
        "up":    { "uv": [ 4, 4.5, 6, 5 ], "rotation": 180, "texture": "#down", "cullface": "south" },
        "south": { "uv": [ 4, 4.5, 6, 5 ], "texture": "#down", "cullface": "south" },
        "west":  { "uv": [ 4, 4.5, 4.5, 5 ], "texture": "#down", "cullface": "south" },
        "east":  { "uv": [ 5.5, 4.5, 6, 5 ], "texture": "#down", "cullface": "south" }
    }
},
{
    "from": [ 4, 10.5, 16 ],
    "to": [ 6, 11, 16.5 ],
    "faces": {
        "down":  { "uv": [ 6, 5.5, 4, 5 ], "rotation": 180, "texture": "#down", "cullface": "south" },
        "south": { "uv": [ 4, 5, 6, 5.5 ], "texture": "#down", "cullface": "south" },
        "west":  { "uv": [ 4, 5, 4.5, 5.5 ], "texture": "#down", "cullface": "south" },
        "east":  { "uv": [ 5.5, 5, 6, 5.5 ], "texture": "#down", "cullface": "south" }
    }
},
{
    "from": [ 4.5, 10, 16 ],
    "to": [ 5.5, 10.5, 16.5 ],
    "faces": {
        "down":  { "uv": [ 5.5, 6, 4.5, 5.5 ], "rotation": 180, "texture": "#down", "cullface": "south" },
        "south": { "uv": [ 4.5, 5.5, 5.5, 6 ], "texture": "#down", "cullface": "south" },
        "west":  { "uv": [ 4.5, 5.5, 5, 6 ], "texture": "#down", "cullface": "south" },
        "east":  { "uv": [ 4.5, 5.5, 5, 6 ], "texture": "#down", "cullface": "south" }
    }
},
{
    "from": [ 6, 9.5, 16 ],
    "to": [ 8, 10.5, 16.5 ],
    "faces": {
        "down":  { "uv": [ 8, 6.5, 6, 6 ], "rotation": 180, "texture": "#down", "cullface": "south" },
        "up":    { "uv": [ 6, 5.5, 8, 6 ], "rotation": 180, "texture": "#down", "cullface": "south" },
        "south": { "uv": [ 6, 5.5, 8, 6.5 ], "texture": "#down", "cullface": "south" },
        "west":  { "uv": [ 6, 5.5, 6.5, 6.5 ], "texture": "#down", "cullface": "south" },
        "east":  { "uv": [ 7.5, 5.5, 8, 6.5 ], "texture": "#down", "cullface": "south" }
    }
},
{
    "from": [ 6.5, 10.5, 16 ],
    "to": [ 7.5, 11, 16.5 ],
    "faces": {
        "up":    { "uv": [ 6.5, 5, 7.5, 5.5 ], "rotation": 180, "texture": "#down", "cullface": "south" },
        "south": { "uv": [ 6.5, 5, 7.5, 5.5 ], "texture": "#down", "cullface": "south" },
        "west":  { "uv": [ 6.5, 5, 7, 5.5 ], "texture": "#down", "cullface": "south" },
        "east":  { "uv": [ 7, 5, 7.5, 5.5 ], "texture": "#down", "cullface": "south" }
    }
},
{
    "from": [ 6.5, 9, 16 ],
    "to": [ 7.5, 9.5, 16.5 ],
    "faces": {
        "down":  { "uv": [ 7.5, 7, 6.5, 6.5 ], "rotation": 180, "texture": "#down", "cullface": "south" },
        "south": { "uv": [ 6.5, 6.5, 7.5, 7 ], "texture": "#down", "cullface": "south" },
        "west":  { "uv": [ 7, 6.5, 7.5, 7 ], "texture": "#down", "cullface": "south" },
        "east":  { "uv": [ 7, 6.5, 7.5, 7 ], "texture": "#down", "cullface": "south" }
    }
},
{
    "from": [ 12.5, 11, 16 ],
    "to": [ 13.5, 13, 16.5 ],
    "faces": {
        "down":  { "uv": [ 13.5, 5, 12.5, 4.5 ], "rotation": 180, "texture": "#down", "cullface": "south" },
        "up":    { "uv": [ 12.5, 3, 13.5, 3.5 ], "rotation": 180, "texture": "#down", "cullface": "south" },
        "south": { "uv": [ 12.5, 3, 13.5, 5 ], "texture": "#down", "cullface": "south" },
        "west":  { "uv": [ 12.5, 3, 13, 5 ], "texture": "#down", "cullface": "south" },
        "east":  { "uv": [ 13, 3, 13.5, 5 ], "texture": "#down", "cullface": "south" }
    }
},
{
    "from": [ 12, 11.5, 16 ],
    "to": [ 12.5, 12.5, 16.5 ],
    "faces": {
        "down":  { "uv": [ 12.5, 4.5, 12, 4 ], "rotation": 180, "texture": "#down", "cullface": "south" },
        "up":    { "uv": [ 12, 3.5, 12.5, 4 ], "rotation": 180, "texture": "#down", "cullface": "south" },
        "south": { "uv": [ 12, 3.5, 12.5, 4.5 ], "texture": "#down", "cullface": "south" },
        "west":  { "uv": [ 12, 3.5, 12.5, 4.5 ], "texture": "#down", "cullface": "south" }
    }
},
{
    "from": [ 13.5, 11.5, 16 ],
    "to": [ 14, 12.5, 16.5 ],
    "faces": {
        "down":  { "uv": [ 14, 4.5, 13.5, 4 ], "rotation": 180, "texture": "#down", "cullface": "south" },
        "up":    { "uv": [ 13.5, 3.5, 14, 4 ], "rotation": 180, "texture": "#down", "cullface": "south" },
        "south": { "uv": [ 13.5, 3.5, 14, 4.5 ], "texture": "#down", "cullface": "south" },
        "east":  { "uv": [ 13.5, 3.5, 14, 4.5 ], "texture": "#down", "cullface": "south" }
    }
},
{
    "from": [ 6.5, 6, 16 ],
    "to": [ 7.5, 8, 16.5 ],
    "faces": {
        "down":  { "uv": [ 7.5, 10, 6.5, 9.5 ], "rotation": 180, "texture": "#down", "cullface": "south" },
        "up":    { "uv": [ 6.5, 8, 7.5, 8.5 ], "rotation": 180, "texture": "#down", "cullface": "south" },
        "south": { "uv": [ 6.5, 8, 7.5, 10 ], "texture": "#down", "cullface": "south" },
        "west":  { "uv": [ 6.5, 8, 7, 10 ], "texture": "#down", "cullface": "south" },
        "east":  { "uv": [ 7, 8, 7.5, 10 ], "texture": "#down", "cullface": "south" }
    }
},
{
    "from": [ 6, 6.5, 16 ],
    "to": [ 6.5, 7.5, 16.5 ],
    "faces": {
        "down":  { "uv": [ 6.5, 6, 6, 5.5 ], "rotation": 180, "texture": "#down", "cullface": "south" },
        "up":    { "uv": [ 6, 8.5, 6.5, 9 ], "rotation": 180, "texture": "#down", "cullface": "south" },
        "south": { "uv": [ 6, 8.5, 6.5, 9.5 ], "texture": "#down", "cullface": "south" },
        "west":  { "uv": [ 6, 8.5, 6.5, 9.5 ], "texture": "#down", "cullface": "south" }
    }
},
{
    "from": [ 7.5, 6.5, 16 ],
    "to": [ 8, 7.5, 16.5 ],
    "faces": {
        "down":  { "uv": [ 8, 6.5, 7.5, 6 ], "rotation": 180, "texture": "#down", "cullface": "south" },
        "up":    { "uv": [ 7.5, 5.5, 8, 6 ], "rotation": 180, "texture": "#down", "cullface": "south" },
        "south": { "uv": [ 7.5, 8.5, 8, 9.5 ], "texture": "#down", "cullface": "south" },
        "east":  { "uv": [ 7.5, 8.5, 8, 9.5 ], "texture": "#down", "cullface": "south" }
    }
},
{
    "from": [ 10.5, 5, 16 ],
    "to": [ 11.5, 7, 16.5 ],
    "faces": {
        "down":  { "uv": [ 11.5, 11, 10.5, 10.5 ], "rotation": 180, "texture": "#down", "cullface": "south" },
        "up":    { "uv": [ 10.5, 9, 11.5, 9.5 ], "rotation": 180, "texture": "#down", "cullface": "south" },
        "south": { "uv": [ 10.5, 9, 11.5, 11 ], "texture": "#down", "cullface": "south" },
        "west":  { "uv": [ 10.5, 9, 11, 11 ], "texture": "#down", "cullface": "south" },
        "east":  { "uv": [ 11, 9, 11.5, 11 ], "texture": "#down", "cullface": "south" }
    }
},
{
    "from": [ 10, 5.5, 16 ],
    "to": [ 10.5, 6.5, 16.5 ],
    "faces": {
        "down":  { "uv": [ 10.5, 10, 10, 9.5 ], "rotation": 180, "texture": "#down", "cullface": "south" },
        "up":    { "uv": [ 10, 9.5, 10.5, 10 ], "rotation": 180, "texture": "#down", "cullface": "south" },
        "south": { "uv": [ 10, 9.5, 10.5, 10.5 ], "texture": "#down", "cullface": "south" },
        "west":  { "uv": [ 10, 9.5, 10.5, 10.5 ], "texture": "#down", "cullface": "south" }
    }
},
{
    "from": [ 11.5, 5.5, 16 ],
    "to": [ 12, 6.5, 16.5 ],
    "faces": {
        "down":  { "uv": [ 12, 10, 11.5, 9.5 ], "rotation": 180, "texture": "#down", "cullface": "south" },
        "up":    { "uv": [ 11.5, 9.5, 12, 10 ], "rotation": 180, "texture": "#down", "cullface": "south" },
        "south": { "uv": [ 11.5, 9.5, 12, 10.5 ], "texture": "#down", "cullface": "south" },
        "east":  { "uv": [ 11.5, 9.5, 12, 10.5 ], "texture": "#down", "cullface": "south" }
    }
},
{
    "from": [ 13.5, 4, 16 ],
    "to": [ 14.5, 6, 16.5 ],
    "faces": {
        "down":  { "uv": [ 14.5, 12, 13.5, 11.5 ], "rotation": 180, "texture": "#down", "cullface": "south" },
        "up":    { "uv": [ 13.5, 10, 14.5, 10.5 ], "rotation": 180, "texture": "#down", "cullface": "south" },
        "south": { "uv": [ 13.5, 10, 14.5, 12 ], "texture": "#down", "cullface": "south" },
        "west":  { "uv": [ 13.5, 10, 14, 12 ], "texture": "#down", "cullface": "south" },
        "east":  { "uv": [ 14, 10, 14.5, 12 ], "texture": "#down", "cullface": "south" }
    }
},
{
    "from": [ 14.5, 4.5, 16 ],
    "to": [ 15, 5.5, 16.5 ],
    "faces": {
        "down":  { "uv": [ 15, 11.5, 14.5, 11 ], "rotation": 180, "texture": "#down", "cullface": "south" },
        "up":    { "uv": [ 14.5, 10.5, 15, 11 ], "rotation": 180, "texture": "#down", "cullface": "south" },
        "south": { "uv": [ 14.5, 10.5, 15, 11.5 ], "texture": "#down", "cullface": "south" },
        "east":  { "uv": [ 14.5, 10.5, 15, 11.5 ], "texture": "#down", "cullface": "south" }
    }
},
{
    "from": [ 13, 4.5, 16 ],
    "to": [ 13.5, 5.5, 16.5 ],
    "faces": {
        "down":  { "uv": [ 13.5, 11, 13, 10.5 ], "rotation": 180, "texture": "#down", "cullface": "south" },
        "up":    { "uv": [ 13, 11, 13.5, 11.5 ], "rotation": 180, "texture": "#down", "cullface": "south" },
        "south": { "uv": [ 13, 10.5, 13.5, 11.5 ], "texture": "#down", "cullface": "south" },
        "west":  { "uv": [ 13, 10.5, 13.5, 11.5 ], "texture": "#down", "cullface": "south" }
    }
},
{
    "from": [ 7.5, 3, 16 ],
    "to": [ 8.5, 5, 16.5 ],
    "faces": {
        "down":  { "uv": [ 8.5, 13, 7.5, 12.5 ], "rotation": 180, "texture": "#down", "cullface": "south" },
        "up":    { "uv": [ 7.5, 11, 8.5, 11.5 ], "rotation": 180, "texture": "#down", "cullface": "south" },
        "south": { "uv": [ 7.5, 11, 8.5, 13 ], "texture": "#down", "cullface": "south" },
        "west":  { "uv": [ 7.5, 11, 8, 13 ], "texture": "#down", "cullface": "south" },
        "east":  { "uv": [ 8, 11, 8.5, 13 ], "texture": "#down", "cullface": "south" }
    }
},
{
    "from": [ 7, 3.5, 16 ],
    "to": [ 7.5, 4.5, 16.5 ],
    "faces": {
        "down":  { "uv": [ 7.5, 12.5, 7, 12 ], "rotation": 180, "texture": "#down", "cullface": "south" },
        "up":    { "uv": [ 7, 11.5, 7.5, 12 ], "rotation": 180, "texture": "#down", "cullface": "south" },
        "south": { "uv": [ 7, 11.5, 7.5, 12.5 ], "texture": "#down", "cullface": "south" },
        "west":  { "uv": [ 7, 11.5, 7.5, 12.5 ], "texture": "#down", "cullface": "south" }
    }
},
{
    "from": [ 8.5, 3.5, 16 ],
    "to": [ 9, 4.5, 16.5 ],
    "faces": {
        "down":  { "uv": [ 12, 10.5, 11.5, 10 ], "rotation": 180, "texture": "#down", "cullface": "south" },
        "up":    { "uv": [ 11.5, 9.5, 12, 10 ], "rotation": 180, "texture": "#down", "cullface": "south" },
        "south": { "uv": [ 8.5, 11.5, 9, 12.5 ], "texture": "#down", "cullface": "south" },
        "east":  { "uv": [ 8.5, 11.5, 9, 12.5 ], "texture": "#down", "cullface": "south" }
    }
},
{
    "from": [ 1.5, 1, 16 ],
    "to": [ 2.5, 3, 16.5 ],
    "faces": {
        "down":  { "uv": [ 2.5, 15, 1.5, 14.5 ], "rotation": 180, "texture": "#down", "cullface": "south" },
        "up":    { "uv": [ 1.5, 13, 2.5, 13.5 ], "rotation": 180, "texture": "#down", "cullface": "south" },
        "south": { "uv": [ 1.5, 13, 2.5, 15 ], "texture": "#down", "cullface": "south" },
        "west":  { "uv": [ 1.5, 13, 2, 15 ], "texture": "#down", "cullface": "south" },
        "east":  { "uv": [ 2, 13, 2.5, 15 ], "texture": "#down", "cullface": "south" }
    }
},
{
    "from": [ 1, 1.5, 16 ],
    "to": [ 1.5, 2.5, 16.5 ],
    "faces": {
        "down":  { "uv": [ 1.5, 14, 1, 13.5 ], "rotation": 180, "texture": "#down", "cullface": "south" },
        "up":    { "uv": [ 1, 13.5, 1.5, 14 ], "rotation": 180, "texture": "#down", "cullface": "south" },
        "south": { "uv": [ 1, 13.5, 1.5, 14.5 ], "texture": "#down", "cullface": "south" },
        "west":  { "uv": [ 1, 13.5, 1.5, 14.5 ], "texture": "#down", "cullface": "south" }
    }
},
{
    "from": [ 2.5, 1.5, 16 ],
    "to": [ 3, 2.5, 16.5 ],
    "faces": {
        "down":  { "uv": [ 3, 14, 2.5, 13.5 ], "rotation": 180, "texture": "#down", "cullface": "south" },
        "up":    { "uv": [ 2.5, 13.5, 3, 14 ], "rotation": 180, "texture": "#down", "cullface": "south" },
        "south": { "uv": [ 2.5, 13.5, 3, 14.5 ], "texture": "#down", "cullface": "south" },
        "east":  { "uv": [ 2.5, 13.5, 3, 14.5 ], "texture": "#down", "cullface": "south" }
    }
},
{
    "from": [ -0.5, 14.5, 6.5 ],
    "to": [ 0, 15, 7.5 ],
    "faces": {
        "up":    { "uv": [ 6.5, 1, 7.5, 1.5 ], "rotation": 270, "texture": "#down", "cullface": "west" },
        "north": { "uv": [ 6.5, 1, 7, 1.5 ], "texture": "#down", "cullface": "west" },
        "south": { "uv": [ 7, 1, 7.5, 1.5 ], "texture": "#down", "cullface": "west" },
        "west":  { "uv": [ 6.5, 1, 7.5, 1.5 ], "texture": "#down", "cullface": "west" }
    }
},
{
    "from": [ -0.5, 14, 6 ],
    "to": [ 0, 14.5, 8 ],
    "faces": {
        "up":    { "uv": [ 6, 1.5, 8, 2 ], "rotation": 270, "texture": "#down", "cullface": "west" },
        "north": { "uv": [ 6, 1.5, 6.5, 2 ], "texture": "#down", "cullface": "west" },
        "south": { "uv": [ 7.5, 1.5, 8, 2 ], "texture": "#down", "cullface": "west" },
        "west":  { "uv": [ 6, 1.5, 8, 2 ], "texture": "#down", "cullface": "west" }
    }
},
{
    "from": [ -0.5, 13.5, 6 ],
    "to": [ 0, 14, 8 ],
    "faces": {
        "down":  { "uv": [ 8, 2.5, 6, 2 ], "rotation": 90, "texture": "#down", "cullface": "west" },
        "north": { "uv": [ 6, 2, 6.5, 2.5 ], "texture": "#down", "cullface": "west" },
        "south": { "uv": [ 7.5, 2, 8, 2.5 ], "texture": "#down", "cullface": "west" },
        "west":  { "uv": [ 6, 2, 8, 2.5 ], "texture": "#down", "cullface": "west" }
    }
},
{
    "from": [ -0.5, 13, 6.5 ],
    "to": [ 0, 13.5, 7.5 ],
    "faces": {
        "down":  { "uv": [ 7.5, 3, 6.5, 2.5 ], "rotation": 90, "texture": "#down", "cullface": "west" },
        "north": { "uv": [ 6.5, 2.5, 7, 3 ], "texture": "#down", "cullface": "west" },
        "south": { "uv": [ 6.5, 2.5, 7, 3 ], "texture": "#down", "cullface": "west" },
        "west":  { "uv": [ 6.5, 2.5, 7.5, 3 ], "texture": "#down", "cullface": "west" }
    }
},
{
    "from": [ -0.5, 11.5, 4.5 ],
    "to": [ 0, 12, 5.5 ],
    "faces": {
        "up":    { "uv": [ 4.5, 4, 5.5, 4.5 ], "rotation": 270, "texture": "#down", "cullface": "west" },
        "north": { "uv": [ 5, 4, 5.5, 4.5 ], "texture": "#down", "cullface": "west" },
        "south": { "uv": [ 4.5, 4, 5, 4.5 ], "texture": "#down", "cullface": "west" },
        "west":  { "uv": [ 4.5, 4, 5.5, 4.5 ], "texture": "#down", "cullface": "west" }
    }
},
{
    "from": [ -0.5, 11, 4 ],
    "to": [ 0, 11.5, 6 ],
    "faces": {
        "up":    { "uv": [ 4, 4.5, 6, 5 ], "rotation": 270, "texture": "#down", "cullface": "west" },
        "north": { "uv": [ 4, 4.5, 4.5, 5 ], "texture": "#down", "cullface": "west" },
        "south": { "uv": [ 5.5, 4.5, 6, 5 ], "texture": "#down", "cullface": "west" },
        "west":  { "uv": [ 4, 4.5, 6, 5 ], "texture": "#down", "cullface": "west" }
    }
},
{
    "from": [ -0.5, 10.5, 4 ],
    "to": [ 0, 11, 6 ],
    "faces": {
        "down":  { "uv": [ 6, 5.5, 4, 5 ], "rotation": 90, "texture": "#down", "cullface": "west" },
        "north": { "uv": [ 4, 5, 4.5, 5.5 ], "texture": "#down", "cullface": "west" },
        "south": { "uv": [ 5.5, 5, 6, 5.5 ], "texture": "#down", "cullface": "west" },
        "west":  { "uv": [ 4, 5, 6, 5.5 ], "texture": "#down", "cullface": "west" }
    }
},
{
    "from": [ -0.5, 10, 4.5 ],
    "to": [ 0, 10.5, 5.5 ],
    "faces": {
        "down":  { "uv": [ 5.5, 6, 4.5, 5.5 ], "rotation": 90, "texture": "#down", "cullface": "west" },
        "north": { "uv": [ 4.5, 5.5, 5, 6 ], "texture": "#down", "cullface": "west" },
        "south": { "uv": [ 4.5, 5.5, 5, 6 ], "texture": "#down", "cullface": "west" },
        "west":  { "uv": [ 4.5, 5.5, 5.5, 6 ], "texture": "#down", "cullface": "west" }
    }
},
{
    "from": [ -0.5, 9.5, 6 ],
    "to": [ 0, 10.5, 8 ],
    "faces": {
        "down":  { "uv": [ 8, 6.5, 6, 6 ], "rotation": 90, "texture": "#down", "cullface": "west" },
        "up":    { "uv": [ 6, 5.5, 8, 6 ], "rotation": 270, "texture": "#down", "cullface": "west" },
        "north": { "uv": [ 6, 5.5, 6.5, 6.5 ], "texture": "#down", "cullface": "west" },
        "south": { "uv": [ 7.5, 5.5, 8, 6.5 ], "texture": "#down", "cullface": "west" },
        "west":  { "uv": [ 6, 5.5, 8, 6.5 ], "texture": "#down", "cullface": "west" }
    }
},
{
    "from": [ -0.5, 10.5, 6.5 ],
    "to": [ 0, 11, 7.5 ],
    "faces": {
        "up":    { "uv": [ 6.5, 5, 7.5, 5.5 ], "rotation": 270, "texture": "#down", "cullface": "west" },
        "north": { "uv": [ 6.5, 5, 7, 5.5 ], "texture": "#down", "cullface": "west" },
        "south": { "uv": [ 7, 5, 7.5, 5.5 ], "texture": "#down", "cullface": "west" },
        "west":  { "uv": [ 6.5, 5, 7.5, 5.5 ], "texture": "#down", "cullface": "west" }
    }
},
{
    "from": [ -0.5, 9, 6.5 ],
    "to": [ 0, 9.5, 7.5 ],
    "faces": {
        "down":  { "uv": [ 7.5, 7, 6.5, 6.5 ], "rotation": 90, "texture": "#down", "cullface": "west" },
        "north": { "uv": [ 7, 6.5, 7.5, 7 ], "texture": "#down", "cullface": "west" },
        "south": { "uv": [ 7, 6.5, 7.5, 7 ], "texture": "#down", "cullface": "west" },
        "west":  { "uv": [ 6.5, 6.5, 7.5, 7 ], "texture": "#down", "cullface": "west" }
    }
},
{
    "from": [ -0.5, 11, 12.5 ],
    "to": [ 0, 13, 13.5 ],
    "faces": {
        "down":  { "uv": [ 13.5, 5, 12.5, 4.5 ], "rotation": 90, "texture": "#down", "cullface": "west" },
        "up":    { "uv": [ 12.5, 3, 13.5, 3.5 ], "rotation": 270, "texture": "#down", "cullface": "west" },
        "north": { "uv": [ 12.5, 3, 13, 5 ], "texture": "#down", "cullface": "west" },
        "south": { "uv": [ 13, 3, 13.5, 5 ], "texture": "#down", "cullface": "west" },
        "west":  { "uv": [ 12.5, 3, 13.5, 5 ], "texture": "#down", "cullface": "west" }
    }
},
{
    "from": [ -0.5, 11.5, 12 ],
    "to": [ 0, 12.5, 12.5 ],
    "faces": {
        "down":  { "uv": [ 12.5, 4.5, 12, 4 ], "rotation": 90, "texture": "#down", "cullface": "west" },
        "up":    { "uv": [ 12, 3.5, 12.5, 4 ], "rotation": 270, "texture": "#down", "cullface": "west" },
        "north": { "uv": [ 12, 3.5, 12.5, 4.5 ], "texture": "#down", "cullface": "west" },
        "west":  { "uv": [ 12, 3.5, 12.5, 4.5 ], "texture": "#down", "cullface": "west" }
    }
},
{
    "from": [ -0.5, 11.5, 13.5 ],
    "to": [ 0, 12.5, 14 ],
    "faces": {
        "down":  { "uv": [ 14, 4.5, 13.5, 4 ], "rotation": 90, "texture": "#down", "cullface": "west" },
        "up":    { "uv": [ 13.5, 3.5, 14, 4 ], "rotation": 270, "texture": "#down", "cullface": "west" },
        "south": { "uv": [ 13.5, 3.5, 14, 4.5 ], "texture": "#down", "cullface": "west" },
        "west":  { "uv": [ 13.5, 3.5, 14, 4.5 ], "texture": "#down", "cullface": "west" }
    }
},
{
    "from": [ -0.5, 6, 6.5 ],
    "to": [ 0, 8, 7.5 ],
    "faces": {
        "down":  { "uv": [ 7.5, 10, 6.5, 9.5 ], "rotation": 90, "texture": "#down", "cullface": "west" },
        "up":    { "uv": [ 6.5, 8, 7.5, 8.5 ], "rotation": 270, "texture": "#down", "cullface": "west" },
        "north": { "uv": [ 6.5, 8, 7, 10 ], "texture": "#down", "cullface": "west" },
        "south": { "uv": [ 7, 8, 7.5, 10 ], "texture": "#down", "cullface": "west" },
        "west":  { "uv": [ 6.5, 8, 7.5, 10 ], "texture": "#down", "cullface": "west" }
    }
},
{
    "from": [ -0.5, 6.5, 6 ],
    "to": [ 0, 7.5, 6.5 ],
    "faces": {
        "down":  { "uv": [ 6.5, 6, 6, 5.5 ], "rotation": 90, "texture": "#down", "cullface": "west" },
        "up":    { "uv": [ 6, 8.5, 6.5, 9 ], "rotation": 270, "texture": "#down", "cullface": "west" },
        "north": { "uv": [ 6, 8.5, 6.5, 9.5 ], "texture": "#down", "cullface": "west" },
        "west":  { "uv": [ 6, 8.5, 6.5, 9.5 ], "texture": "#down", "cullface": "west" }
    }
},
{
    "from": [ -0.5, 6.5, 7.5 ],
    "to": [ 0, 7.5, 8 ],
    "faces": {
        "down":  { "uv": [ 8, 6.5, 7.5, 6 ], "rotation": 90, "texture": "#down", "cullface": "west" },
        "up":    { "uv": [ 7.5, 5.5, 8, 6 ], "rotation": 270, "texture": "#down", "cullface": "west" },
        "south": { "uv": [ 7.5, 8.5, 8, 9.5 ], "texture": "#down", "cullface": "west" },
        "west":  { "uv": [ 7.5, 8.5, 8, 9.5 ], "texture": "#down", "cullface": "west" }
    }
},
{
    "from": [ -0.5, 5, 10.5 ],
    "to": [ 0, 7, 11.5 ],
    "faces": {
        "down":  { "uv": [ 11.5, 11, 10.5, 10.5 ], "rotation": 90, "texture": "#down", "cullface": "west" },
        "up":    { "uv": [ 10.5, 9, 11.5, 9.5 ], "rotation": 270, "texture": "#down", "cullface": "west" },
        "north": { "uv": [ 10.5, 9, 11, 11 ], "texture": "#down", "cullface": "west" },
        "south": { "uv": [ 11, 9, 11.5, 11 ], "texture": "#down", "cullface": "west" },
        "west":  { "uv": [ 10.5, 9, 11.5, 11 ], "texture": "#down", "cullface": "west" }
    }
},
{
    "from": [ -0.5, 5.5, 10 ],
    "to": [ 0, 6.5, 10.5 ],
    "faces": {
        "down":  { "uv": [ 10.5, 10, 10, 9.5 ], "rotation": 90, "texture": "#down", "cullface": "west" },
        "up":    { "uv": [ 10, 9.5, 10.5, 10 ], "rotation": 270, "texture": "#down", "cullface": "west" },
        "north": { "uv": [ 10, 9.5, 10.5, 10.5 ], "texture": "#down", "cullface": "west" },
        "west":  { "uv": [ 10, 9.5, 10.5, 10.5 ], "texture": "#down", "cullface": "west" }
    }
},
{
    "from": [ -0.5, 5.5, 11.5 ],
    "to": [ 0, 6.5, 12 ],
    "faces": {
        "down":  { "uv": [ 12, 10, 11.5, 9.5 ], "rotation": 90, "texture": "#down", "cullface": "west" },
        "up":    { "uv": [ 11.5, 9.5, 12, 10 ], "rotation": 270, "texture": "#down", "cullface": "west" },
        "south": { "uv": [ 11.5, 9.5, 12, 10.5 ], "texture": "#down", "cullface": "west" },
        "west":  { "uv": [ 11.5, 9.5, 12, 10.5 ], "texture": "#down", "cullface": "west" }
    }
},
{
    "from": [ -0.5, 4, 13.5 ],
    "to": [ 0, 6, 14.5 ],
    "faces": {
        "down":  { "uv": [ 14.5, 12, 13.5, 11.5 ], "rotation": 90, "texture": "#down", "cullface": "west" },
        "up":    { "uv": [ 13.5, 10, 14.5, 10.5 ], "rotation": 270, "texture": "#down", "cullface": "west" },
        "north": { "uv": [ 13.5, 10, 14, 12 ], "texture": "#down", "cullface": "west" },
        "south": { "uv": [ 14, 10, 14.5, 12 ], "texture": "#down", "cullface": "west" },
        "west":  { "uv": [ 13.5, 10, 14.5, 12 ], "texture": "#down", "cullface": "west" }
    }
},
{
    "from": [ -0.5, 4.5, 14.5 ],
    "to": [ 0, 5.5, 15 ],
    "faces": {
        "down":  { "uv": [ 15, 11.5, 14.5, 11 ], "rotation": 90, "texture": "#down", "cullface": "west" },
        "up":    { "uv": [ 14.5, 10.5, 15, 11 ], "rotation": 270, "texture": "#down", "cullface": "west" },
        "south": { "uv": [ 14.5, 10.5, 15, 11.5 ], "texture": "#down", "cullface": "west" },
        "west":  { "uv": [ 14.5, 10.5, 15, 11.5 ], "texture": "#down", "cullface": "west" }
    }
},
{
    "from": [ -0.5, 4.5, 13 ],
    "to": [ 0, 5.5, 13.5 ],
    "faces": {
        "down":  { "uv": [ 13.5, 11, 13, 10.5 ], "rotation": 90, "texture": "#down", "cullface": "west" },
        "up":    { "uv": [ 13, 11, 13.5, 11.5 ], "rotation": 270, "texture": "#down", "cullface": "west" },
        "north": { "uv": [ 13, 10.5, 13.5, 11.5 ], "texture": "#down", "cullface": "west" },
        "west":  { "uv": [ 13, 10.5, 13.5, 11.5 ], "texture": "#down", "cullface": "west" }
    }
},
{
    "from": [ -0.5, 3, 7.5 ],
    "to": [ 0, 5, 8.5 ],
    "faces": {
        "down":  { "uv": [ 8.5, 13, 7.5, 12.5 ], "rotation": 90, "texture": "#down", "cullface": "west" },
        "up":    { "uv": [ 7.5, 11, 8.5, 11.5 ], "rotation": 270, "texture": "#down", "cullface": "west" },
        "north": { "uv": [ 7.5, 11, 8, 13 ], "texture": "#down", "cullface": "west" },
        "south": { "uv": [ 8, 11, 8.5, 13 ], "texture": "#down", "cullface": "west" },
        "west":  { "uv": [ 7.5, 11, 8.5, 13 ], "texture": "#down", "cullface": "west" }
    }
},
{
    "from": [ -0.5, 3.5, 7 ],
    "to": [ 0, 4.5, 7.5 ],
    "faces": {
        "down":  { "uv": [ 7.5, 12.5, 7, 12 ], "rotation": 90, "texture": "#down", "cullface": "west" },
        "up":    { "uv": [ 7, 11.5, 7.5, 12 ], "rotation": 270, "texture": "#down", "cullface": "west" },
        "north": { "uv": [ 7, 11.5, 7.5, 12.5 ], "texture": "#down", "cullface": "west" },
        "west":  { "uv": [ 7, 11.5, 7.5, 12.5 ], "texture": "#down", "cullface": "west" }
    }
},
{
    "from": [ -0.5, 3.5, 8.5 ],
    "to": [ 0, 4.5, 9 ],
    "faces": {
        "down":  { "uv": [ 12, 10.5, 11.5, 10 ], "rotation": 90, "texture": "#down", "cullface": "west" },
        "up":    { "uv": [ 11.5, 9.5, 12, 10 ], "rotation": 270, "texture": "#down", "cullface": "west" },
        "south": { "uv": [ 8.5, 11.5, 9, 12.5 ], "texture": "#down", "cullface": "west" },
        "west":  { "uv": [ 8.5, 11.5, 9, 12.5 ], "texture": "#down", "cullface": "west" }
    }
},
{
    "from": [ -0.5, 1, 1.5 ],
    "to": [ 0, 3, 2.5 ],
    "faces": {
        "down":  { "uv": [ 2.5, 15, 1.5, 14.5 ], "rotation": 90, "texture": "#down", "cullface": "west" },
        "up":    { "uv": [ 1.5, 13, 2.5, 13.5 ], "rotation": 270, "texture": "#down", "cullface": "west" },
        "north": { "uv": [ 1.5, 13, 2, 15 ], "texture": "#down", "cullface": "west" },
        "south": { "uv": [ 2, 13, 2.5, 15 ], "texture": "#down", "cullface": "west" },
        "west":  { "uv": [ 1.5, 13, 2.5, 15 ], "texture": "#down", "cullface": "west" }
    }
},
{
    "from": [ -0.5, 1.5, 1 ],
    "to": [ 0, 2.5, 1.5 ],
    "faces": {
        "down":  { "uv": [ 1.5, 14, 1, 13.5 ], "rotation": 90, "texture": "#down", "cullface": "west" },
        "up":    { "uv": [ 1, 13.5, 1.5, 14 ], "rotation": 270, "texture": "#down", "cullface": "west" },
        "north": { "uv": [ 1, 13.5, 1.5, 14.5 ], "texture": "#down", "cullface": "west" },
        "west":  { "uv": [ 1, 13.5, 1.5, 14.5 ], "texture": "#down", "cullface": "west" }
    }
},
{
    "from": [ -0.5, 1.5, 2.5 ],
    "to": [ 0, 2.5, 3 ],
    "faces": {
        "down":  { "uv": [ 3, 14, 2.5, 13.5 ], "rotation": 90, "texture": "#down", "cullface": "west" },
        "up":    { "uv": [ 2.5, 13.5, 3, 14 ], "rotation": 270, "texture": "#down", "cullface": "west" },
        "south": { "uv": [ 2.5, 13.5, 3, 14.5 ], "texture": "#down", "cullface": "west" },
        "west":  { "uv": [ 2.5, 13.5, 3, 14.5 ], "texture": "#down", "cullface": "west" }
    }
},
{
    "from": [ 1, 16, 8.5 ],
    "to": [ 1.5, 16.5, 9.5 ],
    "faces": {
        "up":    { "uv": [ 6.5, 1, 7.5, 1.5 ], "rotation": 270, "texture": "#down", "cullface": "up" },
        "north": { "uv": [ 7, 1, 7.5, 1.5 ], "rotation": 90, "texture": "#down", "cullface": "up" },
        "south": { "uv": [ 6.5, 1, 7, 1.5 ], "rotation": 270, "texture": "#down", "cullface": "up" },
        "west":  { "uv": [ 6.5, 1, 7.5, 1.5 ], "texture": "#down", "cullface": "up" }
    }
},
{
    "from": [ 1.5, 16, 8 ],
    "to": [ 2, 16.5, 10 ],
    "faces": {
        "up":    { "uv": [ 6, 1.5, 8, 2 ], "rotation": 270, "texture": "#down", "cullface": "up" },
        "north": { "uv": [ 7.5, 1.5, 8, 2 ], "rotation": 90, "texture": "#down", "cullface": "up" },
        "south": { "uv": [ 6, 1.5, 6.5, 2 ], "rotation": 270, "texture": "#down", "cullface": "up" },
        "west":  { "uv": [ 6, 1.5, 8, 2 ], "texture": "#down", "cullface": "up" }
    }
},
{
    "from": [ 2, 16, 8 ],
    "to": [ 2.5, 16.5, 10 ],
    "faces": {
        "up":    { "uv": [ 6, 2, 8, 2.5 ], "rotation": 270, "texture": "#down", "cullface": "up" },
        "north": { "uv": [ 7.5, 2, 8, 2.5 ], "rotation": 90, "texture": "#down", "cullface": "up" },
        "south": { "uv": [ 6, 2, 6.5, 2.5 ], "rotation": 270, "texture": "#down", "cullface": "up" },
        "east":  { "uv": [ 8, 2.5, 6, 2 ], "rotation": 180, "texture": "#down", "cullface": "up" }
    }
},
{
    "from": [ 2.5, 16, 8.5 ],
    "to": [ 3, 16.5, 9.5 ],
    "faces": {
        "up":    { "uv": [ 6.5, 2.5, 7.5, 3 ], "rotation": 270, "texture": "#down", "cullface": "up" },
        "north": { "uv": [ 6.5, 2.5, 7, 3 ], "rotation": 90, "texture": "#down", "cullface": "up" },
        "south": { "uv": [ 6.5, 2.5, 7, 3 ], "rotation": 270, "texture": "#down", "cullface": "up" },
        "east":  { "uv": [ 7.5, 3, 6.5, 2.5 ], "rotation": 180, "texture": "#down", "cullface": "up" }
    }
},
{
    "from": [ 4, 16, 10.5 ],
    "to": [ 4.5, 16.5, 11.5 ],
    "faces": {
        "up":    { "uv": [ 4.5, 4, 5.5, 4.5 ], "rotation": 270, "texture": "#down", "cullface": "up" },
        "north": { "uv": [ 4.5, 4, 5, 4.5 ], "rotation": 90, "texture": "#down", "cullface": "up" },
        "south": { "uv": [ 5, 4, 5.5, 4.5 ], "rotation": 270, "texture": "#down", "cullface": "up" },
        "west":  { "uv": [ 4.5, 4, 5.5, 4.5 ], "texture": "#down", "cullface": "up" }
    }
},
{
    "from": [ 4.5, 16, 10 ],
    "to": [ 5, 16.5, 12 ],
    "faces": {
        "up":    { "uv": [ 4, 4.5, 6, 5 ], "rotation": 270, "texture": "#down", "cullface": "up" },
        "north": { "uv": [ 5.5, 4.5, 6, 5 ], "rotation": 90, "texture": "#down", "cullface": "up" },
        "south": { "uv": [ 4, 4.5, 4.5, 5 ], "rotation": 270, "texture": "#down", "cullface": "up" },
        "west":  { "uv": [ 4, 4.5, 6, 5 ], "texture": "#down", "cullface": "up" }
    }
},
{
    "from": [ 5, 16, 10 ],
    "to": [ 5.5, 16.5, 12 ],
    "faces": {
        "up":    { "uv": [ 4, 5, 6, 5.5 ], "rotation": 270, "texture": "#down", "cullface": "up" },
        "north": { "uv": [ 5.5, 5, 6, 5.5 ], "rotation": 90, "texture": "#down", "cullface": "up" },
        "south": { "uv": [ 4, 5, 4.5, 5.5 ], "rotation": 270, "texture": "#down", "cullface": "up" },
        "east":  { "uv": [ 6, 5.5, 4, 5 ], "rotation": 180, "texture": "#down", "cullface": "up" }
    }
},
{
    "from": [ 5.5, 16, 10.5 ],
    "to": [ 6, 16.5, 11.5 ],
    "faces": {
        "up":    { "uv": [ 4.5, 5.5, 5.5, 6 ], "rotation": 270, "texture": "#down", "cullface": "up" },
        "north": { "uv": [ 4.5, 5.5, 5, 6 ], "rotation": 90, "texture": "#down", "cullface": "up" },
        "south": { "uv": [ 4.5, 5.5, 5, 6 ], "rotation": 270, "texture": "#down", "cullface": "up" },
        "east":  { "uv": [ 5.5, 6, 4.5, 5.5 ], "rotation": 180, "texture": "#down", "cullface": "up" }
    }
},
{
    "from": [ 5.5, 16, 8 ],
    "to": [ 6.5, 16.5, 10 ],
    "faces": {
        "up":    { "uv": [ 6, 5.5, 8, 6.5 ], "rotation": 270, "texture": "#down", "cullface": "up" },
        "north": { "uv": [ 7.5, 5.5, 8, 6.5 ], "rotation": 90, "texture": "#down", "cullface": "up" },
        "south": { "uv": [ 6, 5.5, 6.5, 6.5 ], "rotation": 270, "texture": "#down", "cullface": "up" },
        "west":  { "uv": [ 6, 5.5, 8, 6 ], "texture": "#down", "cullface": "up" },
        "east":  { "uv": [ 8, 6.5, 6, 6 ], "rotation": 180, "texture": "#down", "cullface": "up" }
    }
},
{
    "from": [ 5, 16, 8.5 ],
    "to": [ 5.5, 16.5, 9.5 ],
    "faces": {
        "up":    { "uv": [ 6.5, 5, 7.5, 5.5 ], "rotation": 270, "texture": "#down", "cullface": "up" },
        "north": { "uv": [ 7, 5, 7.5, 5.5 ], "rotation": 90, "texture": "#down", "cullface": "up" },
        "south": { "uv": [ 6.5, 5, 7, 5.5 ], "rotation": 270, "texture": "#down", "cullface": "up" },
        "west":  { "uv": [ 6.5, 5, 7.5, 5.5 ], "texture": "#down", "cullface": "up" }
    }
},
{
    "from": [ 6.5, 16, 8.5 ],
    "to": [ 7, 16.5, 9.5 ],
    "faces": {
        "up":    { "uv": [ 6.5, 6.5, 7.5, 7 ], "rotation": 270, "texture": "#down", "cullface": "up" },
        "north": { "uv": [ 7, 6.5, 7.5, 7 ], "rotation": 90, "texture": "#down", "cullface": "up" },
        "south": { "uv": [ 7, 6.5, 7.5, 7 ], "rotation": 270, "texture": "#down", "cullface": "up" },
        "east":  { "uv": [ 7.5, 7, 6.5, 6.5 ], "rotation": 180, "texture": "#down", "cullface": "up" }
    }
},
{
    "from": [ 3, 16, 2.5 ],
    "to": [ 5, 16.5, 3.5 ],
    "faces": {
        "up":    { "uv": [ 12.5, 3, 13.5, 5 ], "rotation": 270, "texture": "#down", "cullface": "up" },
        "north": { "uv": [ 13, 3, 13.5, 5 ], "rotation": 90, "texture": "#down", "cullface": "up" },
        "south": { "uv": [ 12.5, 3, 13, 5 ], "rotation": 270, "texture": "#down", "cullface": "up" },
        "west":  { "uv": [ 12.5, 3, 13.5, 3.5 ], "texture": "#down", "cullface": "up" },
        "east":  { "uv": [ 13.5, 5, 12.5, 4.5 ], "rotation": 180, "texture": "#down", "cullface": "up" }
    }
},
{
    "from": [ 3.5, 16, 3.5 ],
    "to": [ 4.5, 16.5, 4 ],
    "faces": {
        "up":    { "uv": [ 12, 3.5, 12.5, 4.5 ], "rotation": 270, "texture": "#down", "cullface": "up" },
        "south": { "uv": [ 12, 3.5, 12.5, 4.5 ], "rotation": 270, "texture": "#down", "cullface": "up" },
        "west":  { "uv": [ 12, 3.5, 12.5, 4 ], "texture": "#down", "cullface": "up" },
        "east":  { "uv": [ 12.5, 4.5, 12, 4 ], "rotation": 180, "texture": "#down", "cullface": "up" }
    }
},
{
    "from": [ 3.5, 16, 2 ],
    "to": [ 4.5, 16.5, 2.5 ],
    "faces": {
        "up":    { "uv": [ 13.5, 3.5, 14, 4.5 ], "rotation": 270, "texture": "#down", "cullface": "up" },
        "north": { "uv": [ 13.5, 3.5, 14, 4.5 ], "rotation": 90, "texture": "#down", "cullface": "up" },
        "west":  { "uv": [ 13.5, 3.5, 14, 4 ], "texture": "#down", "cullface": "up" },
        "east":  { "uv": [ 14, 4.5, 13.5, 4 ], "rotation": 180, "texture": "#down", "cullface": "up" }
    }
},
{
    "from": [ 8, 16, 8.5 ],
    "to": [ 10, 16.5, 9.5 ],
    "faces": {
        "up":    { "uv": [ 6.5, 8, 7.5, 10 ], "rotation": 270, "texture": "#down", "cullface": "up" },
        "north": { "uv": [ 7, 8, 7.5, 10 ], "rotation": 90, "texture": "#down", "cullface": "up" },
        "south": { "uv": [ 6.5, 8, 7, 10 ], "rotation": 270, "texture": "#down", "cullface": "up" },
        "west":  { "uv": [ 6.5, 8, 7.5, 8.5 ], "texture": "#down", "cullface": "up" },
        "east":  { "uv": [ 7.5, 10, 6.5, 9.5 ], "rotation": 180, "texture": "#down", "cullface": "up" }
    }
},
{
    "from": [ 8.5, 16, 9.5 ],
    "to": [ 9.5, 16.5, 10 ],
    "faces": {
        "up":    { "uv": [ 6, 8.5, 6.5, 9.5 ], "rotation": 270, "texture": "#down", "cullface": "up" },
        "south": { "uv": [ 6, 8.5, 6.5, 9.5 ], "rotation": 270, "texture": "#down", "cullface": "up" },
        "west":  { "uv": [ 6, 8.5, 6.5, 9 ], "texture": "#down", "cullface": "up" },
        "east":  { "uv": [ 6.5, 6, 6, 5.5 ], "rotation": 180, "texture": "#down", "cullface": "up" }
    }
},
{
    "from": [ 8.5, 16, 8 ],
    "to": [ 9.5, 16.5, 8.5 ],
    "faces": {
        "up":    { "uv": [ 7.5, 8.5, 8, 9.5 ], "rotation": 270, "texture": "#down", "cullface": "up" },
        "north": { "uv": [ 7.5, 8.5, 8, 9.5 ], "rotation": 90, "texture": "#down", "cullface": "up" },
        "west":  { "uv": [ 7.5, 5.5, 8, 6 ], "texture": "#down", "cullface": "up" },
        "east":  { "uv": [ 8, 6.5, 7.5, 6 ], "rotation": 180, "texture": "#down", "cullface": "up" }
    }
},
{
    "from": [ 9, 16, 4.5 ],
    "to": [ 11, 16.5, 5.5 ],
    "faces": {
        "up":    { "uv": [ 10.5, 9, 11.5, 11 ], "rotation": 270, "texture": "#down", "cullface": "up" },
        "north": { "uv": [ 11, 9, 11.5, 11 ], "rotation": 90, "texture": "#down", "cullface": "up" },
        "south": { "uv": [ 10.5, 9, 11, 11 ], "rotation": 270, "texture": "#down", "cullface": "up" },
        "west":  { "uv": [ 10.5, 9, 11.5, 9.5 ], "texture": "#down", "cullface": "up" },
        "east":  { "uv": [ 11.5, 11, 10.5, 10.5 ], "rotation": 180, "texture": "#down", "cullface": "up" }
    }
},
{
    "from": [ 9.5, 16, 5.5 ],
    "to": [ 10.5, 16.5, 6 ],
    "faces": {
        "up":    { "uv": [ 10, 9.5, 10.5, 10.5 ], "rotation": 270, "texture": "#down", "cullface": "up" },
        "south": { "uv": [ 10, 9.5, 10.5, 10.5 ], "rotation": 270, "texture": "#down", "cullface": "up" },
        "west":  { "uv": [ 10, 9.5, 10.5, 10 ], "texture": "#down", "cullface": "up" },
        "east":  { "uv": [ 10.5, 10, 10, 9.5 ], "rotation": 180, "texture": "#down", "cullface": "up" }
    }
},
{
    "from": [ 9.5, 16, 4 ],
    "to": [ 10.5, 16.5, 4.5 ],
    "faces": {
        "up":    { "uv": [ 11.5, 9.5, 12, 10.5 ], "rotation": 270, "texture": "#down", "cullface": "up" },
        "north": { "uv": [ 11.5, 9.5, 12, 10.5 ], "rotation": 90, "texture": "#down", "cullface": "up" },
        "west":  { "uv": [ 11.5, 9.5, 12, 10 ], "texture": "#down", "cullface": "up" },
        "east":  { "uv": [ 12, 10, 11.5, 9.5 ], "rotation": 180, "texture": "#down", "cullface": "up" }
    }
},
{
    "from": [ 10, 16, 1.5 ],
    "to": [ 12, 16.5, 2.5 ],
    "faces": {
        "up":    { "uv": [ 13.5, 10, 14.5, 12 ], "rotation": 270, "texture": "#down", "cullface": "up" },
        "north": { "uv": [ 14, 10, 14.5, 12 ], "rotation": 90, "texture": "#down", "cullface": "up" },
        "south": { "uv": [ 13.5, 10, 14, 12 ], "rotation": 270, "texture": "#down", "cullface": "up" },
        "west":  { "uv": [ 13.5, 10, 14.5, 10.5 ], "texture": "#down", "cullface": "up" },
        "east":  { "uv": [ 14.5, 12, 13.5, 11.5 ], "rotation": 180, "texture": "#down", "cullface": "up" }
    }
},
{
    "from": [ 10.5, 16, 1 ],
    "to": [ 11.5, 16.5, 1.5 ],
    "faces": {
        "up":    { "uv": [ 14.5, 10.5, 15, 11.5 ], "rotation": 270, "texture": "#down", "cullface": "up" },
        "north": { "uv": [ 14.5, 10.5, 15, 11.5 ], "rotation": 90, "texture": "#down", "cullface": "up" },
        "west":  { "uv": [ 14.5, 10.5, 15, 11 ], "texture": "#down", "cullface": "up" },
        "east":  { "uv": [ 15, 11.5, 14.5, 11 ], "rotation": 180, "texture": "#down", "cullface": "up" }
    }
},
{
    "from": [ 10.5, 16, 2.5 ],
    "to": [ 11.5, 16.5, 3 ],
    "faces": {
        "up":    { "uv": [ 13, 10.5, 13.5, 11.5 ], "rotation": 270, "texture": "#down", "cullface": "up" },
        "south": { "uv": [ 13, 10.5, 13.5, 11.5 ], "rotation": 270, "texture": "#down", "cullface": "up" },
        "west":  { "uv": [ 13, 11, 13.5, 11.5 ], "texture": "#down", "cullface": "up" },
        "east":  { "uv": [ 13.5, 11, 13, 10.5 ], "rotation": 180, "texture": "#down", "cullface": "up" }
    }
},
{
    "from": [ 11, 16, 7.5 ],
    "to": [ 13, 16.5, 8.5 ],
    "faces": {
        "up":    { "uv": [ 7.5, 11, 8.5, 13 ], "rotation": 270, "texture": "#down", "cullface": "up" },
        "north": { "uv": [ 8, 11, 8.5, 13 ], "rotation": 90, "texture": "#down", "cullface": "up" },
        "south": { "uv": [ 7.5, 11, 8, 13 ], "rotation": 270, "texture": "#down", "cullface": "up" },
        "west":  { "uv": [ 7.5, 11, 8.5, 11.5 ], "texture": "#down", "cullface": "up" },
        "east":  { "uv": [ 8.5, 13, 7.5, 12.5 ], "rotation": 180, "texture": "#down", "cullface": "up" }
    }
},
{
    "from": [ 11.5, 16, 8.5 ],
    "to": [ 12.5, 16.5, 9 ],
    "faces": {
        "up":    { "uv": [ 7, 11.5, 7.5, 12.5 ], "rotation": 270, "texture": "#down", "cullface": "up" },
        "south": { "uv": [ 7, 11.5, 7.5, 12.5 ], "rotation": 270, "texture": "#down", "cullface": "up" },
        "west":  { "uv": [ 7, 11.5, 7.5, 12 ], "texture": "#down", "cullface": "up" },
        "east":  { "uv": [ 7.5, 12.5, 7, 12 ], "rotation": 180, "texture": "#down", "cullface": "up" }
    }
},
{
    "from": [ 11.5, 16, 7 ],
    "to": [ 12.5, 16.5, 7.5 ],
    "faces": {
        "up":    { "uv": [ 8.5, 11.5, 9, 12.5 ], "rotation": 270, "texture": "#down", "cullface": "up" },
        "north": { "uv": [ 8.5, 11.5, 9, 12.5 ], "rotation": 90, "texture": "#down", "cullface": "up" },
        "west":  { "uv": [ 11.5, 9.5, 12, 10 ], "texture": "#down", "cullface": "up" },
        "east":  { "uv": [ 12, 10.5, 11.5, 10 ], "rotation": 180, "texture": "#down", "cullface": "up" }
    }
},
{
    "from": [ 13, 16, 13.5 ],
    "to": [ 15, 16.5, 14.5 ],
    "faces": {
        "up":    { "uv": [ 1.5, 13, 2.5, 15 ], "rotation": 270, "texture": "#down", "cullface": "up" },
        "north": { "uv": [ 2, 13, 2.5, 15 ], "rotation": 90, "texture": "#down", "cullface": "up" },
        "south": { "uv": [ 1.5, 13, 2, 15 ], "rotation": 270, "texture": "#down", "cullface": "up" },
        "west":  { "uv": [ 1.5, 13, 2.5, 13.5 ], "texture": "#down", "cullface": "up" },
        "east":  { "uv": [ 2.5, 15, 1.5, 14.5 ], "rotation": 180, "texture": "#down", "cullface": "up" }
    }
},
{
    "from": [ 13.5, 16, 14.5 ],
    "to": [ 14.5, 16.5, 15 ],
    "faces": {
        "up":    { "uv": [ 1, 13.5, 1.5, 14.5 ], "rotation": 270, "texture": "#down", "cullface": "up" },
        "south": { "uv": [ 1, 13.5, 1.5, 14.5 ], "rotation": 270, "texture": "#down", "cullface": "up" },
        "west":  { "uv": [ 1, 13.5, 1.5, 14 ], "texture": "#down", "cullface": "up" },
        "east":  { "uv": [ 1.5, 14, 1, 13.5 ], "rotation": 180, "texture": "#down", "cullface": "up" }
    }
},
{
    "from": [ 13.5, 16, 13 ],
    "to": [ 14.5, 16.5, 13.5 ],
    "faces": {
        "up":    { "uv": [ 2.5, 13.5, 3, 14.5 ], "rotation": 270, "texture": "#down", "cullface": "up" },
        "north": { "uv": [ 2.5, 13.5, 3, 14.5 ], "rotation": 90, "texture": "#down", "cullface": "up" },
        "west":  { "uv": [ 2.5, 13.5, 3, 14 ], "texture": "#down", "cullface": "up" },
        "east":  { "uv": [ 3, 14, 2.5, 13.5 ], "rotation": 180, "texture": "#down", "cullface": "up" }
    }
},
{
    "from": [ 14.5, -0.5, 8.5 ],
    "to": [ 15, 0, 9.5 ],
    "faces": {
        "down":  { "uv": [ 6.5, 1, 7.5, 1.5 ], "rotation": 90, "texture": "#down", "cullface": "down" },
        "north": { "uv": [ 7, 1, 7.5, 1.5 ], "rotation": 270, "texture": "#down", "cullface": "down" },
        "south": { "uv": [ 6.5, 1, 7, 1.5 ], "rotation": 90, "texture": "#down", "cullface": "down" },
        "east":  { "uv": [ 6.5, 1, 7.5, 1.5 ], "rotation": 180, "texture": "#down", "cullface": "down" }
    }
},
{
    "from": [ 14, -0.5, 8 ],
    "to": [ 14.5, 0, 10 ],
    "faces": {
        "down":  { "uv": [ 6, 1.5, 8, 2 ], "rotation": 90, "texture": "#down", "cullface": "down" },
        "north": { "uv": [ 7.5, 1.5, 8, 2 ], "rotation": 270, "texture": "#down", "cullface": "down" },
        "south": { "uv": [ 6, 1.5, 6.5, 2 ], "rotation": 90, "texture": "#down", "cullface": "down" },
        "east":  { "uv": [ 6, 1.5, 8, 2 ], "rotation": 180, "texture": "#down", "cullface": "down" }
    }
},
{
    "from": [ 13.5, -0.5, 8 ],
    "to": [ 14, 0, 10 ],
    "faces": {
        "down":  { "uv": [ 6, 2, 8, 2.5 ], "rotation": 90, "texture": "#down", "cullface": "down" },
        "north": { "uv": [ 7.5, 2, 8, 2.5 ], "rotation": 270, "texture": "#down", "cullface": "down" },
        "south": { "uv": [ 6, 2, 6.5, 2.5 ], "rotation": 90, "texture": "#down", "cullface": "down" },
        "west":  { "uv": [ 8, 2.5, 6, 2 ], "texture": "#down", "cullface": "down" }
    }
},
{
    "from": [ 13, -0.5, 8.5 ],
    "to": [ 13.5, 0, 9.5 ],
    "faces": {
        "down":  { "uv": [ 6.5, 2.5, 7.5, 3 ], "rotation": 90, "texture": "#down", "cullface": "down" },
        "north": { "uv": [ 6.5, 2.5, 7, 3 ], "rotation": 270, "texture": "#down", "cullface": "down" },
        "south": { "uv": [ 6.5, 2.5, 7, 3 ], "rotation": 90, "texture": "#down", "cullface": "down" },
        "west":  { "uv": [ 7.5, 3, 6.5, 2.5 ], "texture": "#down", "cullface": "down" }
    }
},
{
    "from": [ 11.5, -0.5, 10.5 ],
    "to": [ 12, 0, 11.5 ],
    "faces": {
        "down":  { "uv": [ 4.5, 4, 5.5, 4.5 ], "rotation": 90, "texture": "#down", "cullface": "down" },
        "north": { "uv": [ 4.5, 4, 5, 4.5 ], "rotation": 270, "texture": "#down", "cullface": "down" },
        "south": { "uv": [ 5, 4, 5.5, 4.5 ], "rotation": 90, "texture": "#down", "cullface": "down" },
        "east":  { "uv": [ 4.5, 4, 5.5, 4.5 ], "rotation": 180, "texture": "#down", "cullface": "down" }
    }
},
{
    "from": [ 11, -0.5, 10 ],
    "to": [ 11.5, 0, 12 ],
    "faces": {
        "down":  { "uv": [ 4, 4.5, 6, 5 ], "rotation": 90, "texture": "#down", "cullface": "down" },
        "north": { "uv": [ 5.5, 4.5, 6, 5 ], "rotation": 270, "texture": "#down", "cullface": "down" },
        "south": { "uv": [ 4, 4.5, 4.5, 5 ], "rotation": 90, "texture": "#down", "cullface": "down" },
        "east":  { "uv": [ 4, 4.5, 6, 5 ], "rotation": 180, "texture": "#down", "cullface": "down" }
    }
},
{
    "from": [ 10.5, -0.5, 10 ],
    "to": [ 11, 0, 12 ],
    "faces": {
        "down":  { "uv": [ 4, 5, 6, 5.5 ], "rotation": 90, "texture": "#down", "cullface": "down" },
        "north": { "uv": [ 5.5, 5, 6, 5.5 ], "rotation": 270, "texture": "#down", "cullface": "down" },
        "south": { "uv": [ 4, 5, 4.5, 5.5 ], "rotation": 90, "texture": "#down", "cullface": "down" },
        "west":  { "uv": [ 6, 5.5, 4, 5 ], "texture": "#down", "cullface": "down" }
    }
},
{
    "from": [ 10, -0.5, 10.5 ],
    "to": [ 10.5, 0, 11.5 ],
    "faces": {
        "down":  { "uv": [ 4.5, 5.5, 5.5, 6 ], "rotation": 90, "texture": "#down", "cullface": "down" },
        "north": { "uv": [ 4.5, 5.5, 5, 6 ], "rotation": 270, "texture": "#down", "cullface": "down" },
        "south": { "uv": [ 4.5, 5.5, 5, 6 ], "rotation": 90, "texture": "#down", "cullface": "down" },
        "west":  { "uv": [ 5.5, 6, 4.5, 5.5 ], "texture": "#down", "cullface": "down" }
    }
},
{
    "from": [ 9.5, -0.5, 8 ],
    "to": [ 10.5, 0, 10 ],
    "faces": {
        "down":  { "uv": [ 6, 5.5, 8, 6.5 ], "rotation": 90, "texture": "#down", "cullface": "down" },
        "north": { "uv": [ 7.5, 5.5, 8, 6.5 ], "rotation": 270, "texture": "#down", "cullface": "down" },
        "south": { "uv": [ 6, 5.5, 6.5, 6.5 ], "rotation": 90, "texture": "#down", "cullface": "down" },
        "west":  { "uv": [ 8, 6.5, 6, 6 ], "texture": "#down", "cullface": "down" },
        "east":  { "uv": [ 6, 5.5, 8, 6 ], "rotation": 180, "texture": "#down", "cullface": "down" }
    }
},
{
    "from": [ 10.5, -0.5, 8.5 ],
    "to": [ 11, 0, 9.5 ],
    "faces": {
        "down":  { "uv": [ 6.5, 5, 7.5, 5.5 ], "rotation": 90, "texture": "#down", "cullface": "down" },
        "north": { "uv": [ 7, 5, 7.5, 5.5 ], "rotation": 270, "texture": "#down", "cullface": "down" },
        "south": { "uv": [ 6.5, 5, 7, 5.5 ], "rotation": 90, "texture": "#down", "cullface": "down" },
        "east":  { "uv": [ 6.5, 5, 7.5, 5.5 ], "rotation": 180, "texture": "#down", "cullface": "down" }
    }
},
{
    "from": [ 9, -0.5, 8.5 ],
    "to": [ 9.5, 0, 9.5 ],
    "faces": {
        "down":  { "uv": [ 6.5, 6.5, 7.5, 7 ], "rotation": 90, "texture": "#down", "cullface": "down" },
        "north": { "uv": [ 7, 6.5, 7.5, 7 ], "rotation": 270, "texture": "#down", "cullface": "down" },
        "south": { "uv": [ 7, 6.5, 7.5, 7 ], "rotation": 90, "texture": "#down", "cullface": "down" },
        "west":  { "uv": [ 7.5, 7, 6.5, 6.5 ], "texture": "#down", "cullface": "down" }
    }
},
{
    "from": [ 11, -0.5, 2.5 ],
    "to": [ 13, 0, 3.5 ],
    "faces": {
        "down":  { "uv": [ 12.5, 3, 13.5, 5 ], "rotation": 90, "texture": "#down", "cullface": "down" },
        "north": { "uv": [ 13, 3, 13.5, 5 ], "rotation": 270, "texture": "#down", "cullface": "down" },
        "south": { "uv": [ 12.5, 3, 13, 5 ], "rotation": 90, "texture": "#down", "cullface": "down" },
        "west":  { "uv": [ 13.5, 5, 12.5, 4.5 ], "texture": "#down", "cullface": "down" },
        "east":  { "uv": [ 12.5, 3, 13.5, 3.5 ], "rotation": 180, "texture": "#down", "cullface": "down" }
    }
},
{
    "from": [ 11.5, -0.5, 3.5 ],
    "to": [ 12.5, 0, 4 ],
    "faces": {
        "down":  { "uv": [ 12, 3.5, 12.5, 4.5 ], "rotation": 90, "texture": "#down", "cullface": "down" },
        "south": { "uv": [ 12, 3.5, 12.5, 4.5 ], "rotation": 90, "texture": "#down", "cullface": "down" },
        "west":  { "uv": [ 12.5, 4.5, 12, 4 ], "texture": "#down", "cullface": "down" },
        "east":  { "uv": [ 12, 3.5, 12.5, 4 ], "rotation": 180, "texture": "#down", "cullface": "down" }
    }
},
{
    "from": [ 11.5, -0.5, 2 ],
    "to": [ 12.5, 0, 2.5 ],
    "faces": {
        "down":  { "uv": [ 13.5, 3.5, 14, 4.5 ], "rotation": 90, "texture": "#down", "cullface": "down" },
        "north": { "uv": [ 13.5, 3.5, 14, 4.5 ], "rotation": 270, "texture": "#down", "cullface": "down" },
        "west":  { "uv": [ 14, 4.5, 13.5, 4 ], "texture": "#down", "cullface": "down" },
        "east":  { "uv": [ 13.5, 3.5, 14, 4 ], "rotation": 180, "texture": "#down", "cullface": "down" }
    }
},
{
    "from": [ 6, -0.5, 8.5 ],
    "to": [ 8, 0, 9.5 ],
    "faces": {
        "down":  { "uv": [ 6.5, 8, 7.5, 10 ], "rotation": 90, "texture": "#down", "cullface": "down" },
        "north": { "uv": [ 7, 8, 7.5, 10 ], "rotation": 270, "texture": "#down", "cullface": "down" },
        "south": { "uv": [ 6.5, 8, 7, 10 ], "rotation": 90, "texture": "#down", "cullface": "down" },
        "west":  { "uv": [ 7.5, 10, 6.5, 9.5 ], "texture": "#down", "cullface": "down" },
        "east":  { "uv": [ 6.5, 8, 7.5, 8.5 ], "rotation": 180, "texture": "#down", "cullface": "down" }
    }
},
{
    "from": [ 6.5, -0.5, 9.5 ],
    "to": [ 7.5, 0, 10 ],
    "faces": {
        "down":  { "uv": [ 6, 8.5, 6.5, 9.5 ], "rotation": 90, "texture": "#down", "cullface": "down" },
        "south": { "uv": [ 6, 8.5, 6.5, 9.5 ], "rotation": 90, "texture": "#down", "cullface": "down" },
        "west":  { "uv": [ 6.5, 6, 6, 5.5 ], "texture": "#down", "cullface": "down" },
        "east":  { "uv": [ 6, 8.5, 6.5, 9 ], "rotation": 180, "texture": "#down", "cullface": "down" }
    }
},
{
    "from": [ 6.5, -0.5, 8 ],
    "to": [ 7.5, 0, 8.5 ],
    "faces": {
        "down":  { "uv": [ 7.5, 8.5, 8, 9.5 ], "rotation": 90, "texture": "#down", "cullface": "down" },
        "north": { "uv": [ 7.5, 8.5, 8, 9.5 ], "rotation": 270, "texture": "#down", "cullface": "down" },
        "west":  { "uv": [ 8, 6.5, 7.5, 6 ], "texture": "#down", "cullface": "down" },
        "east":  { "uv": [ 7.5, 5.5, 8, 6 ], "rotation": 180, "texture": "#down", "cullface": "down" }
    }
},
{
    "from": [ 5, -0.5, 4.5 ],
    "to": [ 7, 0, 5.5 ],
    "faces": {
        "down":  { "uv": [ 10.5, 9, 11.5, 11 ], "rotation": 90, "texture": "#down", "cullface": "down" },
        "north": { "uv": [ 11, 9, 11.5, 11 ], "rotation": 270, "texture": "#down", "cullface": "down" },
        "south": { "uv": [ 10.5, 9, 11, 11 ], "rotation": 90, "texture": "#down", "cullface": "down" },
        "west":  { "uv": [ 11.5, 11, 10.5, 10.5 ], "texture": "#down", "cullface": "down" },
        "east":  { "uv": [ 10.5, 9, 11.5, 9.5 ], "rotation": 180, "texture": "#down", "cullface": "down" }
    }
},
{
    "from": [ 5.5, -0.5, 5.5 ],
    "to": [ 6.5, 0, 6 ],
    "faces": {
        "down":  { "uv": [ 10, 9.5, 10.5, 10.5 ], "rotation": 90, "texture": "#down", "cullface": "down" },
        "south": { "uv": [ 10, 9.5, 10.5, 10.5 ], "rotation": 90, "texture": "#down", "cullface": "down" },
        "west":  { "uv": [ 10.5, 10, 10, 9.5 ], "texture": "#down", "cullface": "down" },
        "east":  { "uv": [ 10, 9.5, 10.5, 10 ], "rotation": 180, "texture": "#down", "cullface": "down" }
    }
},
{
    "from": [ 5.5, -0.5, 4 ],
    "to": [ 6.5, 0, 4.5 ],
    "faces": {
        "down":  { "uv": [ 11.5, 9.5, 12, 10.5 ], "rotation": 90, "texture": "#down", "cullface": "down" },
        "north": { "uv": [ 11.5, 9.5, 12, 10.5 ], "rotation": 270, "texture": "#down", "cullface": "down" },
        "west":  { "uv": [ 12, 10, 11.5, 9.5 ], "texture": "#down", "cullface": "down" },
        "east":  { "uv": [ 11.5, 9.5, 12, 10 ], "rotation": 180, "texture": "#down", "cullface": "down" }
    }
},
{
    "from": [ 4, -0.5, 1.5 ],
    "to": [ 6, 0, 2.5 ],
    "faces": {
        "down":  { "uv": [ 13.5, 10, 14.5, 12 ], "rotation": 90, "texture": "#down", "cullface": "down" },
        "north": { "uv": [ 14, 10, 14.5, 12 ], "rotation": 270, "texture": "#down", "cullface": "down" },
        "south": { "uv": [ 13.5, 10, 14, 12 ], "rotation": 90, "texture": "#down", "cullface": "down" },
        "west":  { "uv": [ 14.5, 12, 13.5, 11.5 ], "texture": "#down", "cullface": "down" },
        "east":  { "uv": [ 13.5, 10, 14.5, 10.5 ], "rotation": 180, "texture": "#down", "cullface": "down" }
    }
},
{
    "from": [ 4.5, -0.5, 1 ],
    "to": [ 5.5, 0, 1.5 ],
    "faces": {
        "down":  { "uv": [ 14.5, 10.5, 15, 11.5 ], "rotation": 90, "texture": "#down", "cullface": "down" },
        "north": { "uv": [ 14.5, 10.5, 15, 11.5 ], "rotation": 270, "texture": "#down", "cullface": "down" },
        "west":  { "uv": [ 15, 11.5, 14.5, 11 ], "texture": "#down", "cullface": "down" },
        "east":  { "uv": [ 14.5, 10.5, 15, 11 ], "rotation": 180, "texture": "#down", "cullface": "down" }
    }
},
{
    "from": [ 4.5, -0.5, 2.5 ],
    "to": [ 5.5, 0, 3 ],
    "faces": {
        "down":  { "uv": [ 13, 10.5, 13.5, 11.5 ], "rotation": 90, "texture": "#down", "cullface": "down" },
        "south": { "uv": [ 13, 10.5, 13.5, 11.5 ], "rotation": 90, "texture": "#down", "cullface": "down" },
        "west":  { "uv": [ 13.5, 11, 13, 10.5 ], "texture": "#down", "cullface": "down" },
        "east":  { "uv": [ 13, 11, 13.5, 11.5 ], "rotation": 180, "texture": "#down", "cullface": "down" }
    }
},
{
    "from": [ 3, -0.5, 7.5 ],
    "to": [ 5, 0, 8.5 ],
    "faces": {
        "down":  { "uv": [ 7.5, 11, 8.5, 13 ], "rotation": 90, "texture": "#down", "cullface": "down" },
        "north": { "uv": [ 8, 11, 8.5, 13 ], "rotation": 270, "texture": "#down", "cullface": "down" },
        "south": { "uv": [ 7.5, 11, 8, 13 ], "rotation": 90, "texture": "#down", "cullface": "down" },
        "west":  { "uv": [ 8.5, 13, 7.5, 12.5 ], "texture": "#down", "cullface": "down" },
        "east":  { "uv": [ 7.5, 11, 8.5, 11.5 ], "rotation": 180, "texture": "#down", "cullface": "down" }
    }
},
{
    "from": [ 3.5, -0.5, 8.5 ],
    "to": [ 4.5, 0, 9 ],
    "faces": {
        "down":  { "uv": [ 7, 11.5, 7.5, 12.5 ], "rotation": 90, "texture": "#down", "cullface": "down" },
        "south": { "uv": [ 7, 11.5, 7.5, 12.5 ], "rotation": 90, "texture": "#down", "cullface": "down" },
        "west":  { "uv": [ 7.5, 12.5, 7, 12 ], "texture": "#down", "cullface": "down" },
        "east":  { "uv": [ 7, 11.5, 7.5, 12 ], "rotation": 180, "texture": "#down", "cullface": "down" }
    }
},
{
    "from": [ 3.5, -0.5, 7 ],
    "to": [ 4.5, 0, 7.5 ],
    "faces": {
        "down":  { "uv": [ 8.5, 11.5, 9, 12.5 ], "rotation": 90, "texture": "#down", "cullface": "down" },
        "north": { "uv": [ 8.5, 11.5, 9, 12.5 ], "rotation": 270, "texture": "#down", "cullface": "down" },
        "west":  { "uv": [ 12, 10.5, 11.5, 10 ], "texture": "#down", "cullface": "down" },
        "east":  { "uv": [ 11.5, 9.5, 12, 10 ], "rotation": 180, "texture": "#down", "cullface": "down" }
    }
},
{
    "from": [ 1, -0.5, 13.5 ],
    "to": [ 3, 0, 14.5 ],
    "faces": {
        "down":  { "uv": [ 1.5, 13, 2.5, 15 ], "rotation": 90, "texture": "#down", "cullface": "down" },
        "north": { "uv": [ 2, 13, 2.5, 15 ], "rotation": 270, "texture": "#down", "cullface": "down" },
        "south": { "uv": [ 1.5, 13, 2, 15 ], "rotation": 90, "texture": "#down", "cullface": "down" },
        "west":  { "uv": [ 2.5, 15, 1.5, 14.5 ], "texture": "#down", "cullface": "down" },
        "east":  { "uv": [ 1.5, 13, 2.5, 13.5 ], "rotation": 180, "texture": "#down", "cullface": "down" }
    }
},
{
    "from": [ 1.5, -0.5, 14.5 ],
    "to": [ 2.5, 0, 15 ],
    "faces": {
        "down":  { "uv": [ 1, 13.5, 1.5, 14.5 ], "rotation": 90, "texture": "#down", "cullface": "down" },
        "south": { "uv": [ 1, 13.5, 1.5, 14.5 ], "rotation": 90, "texture": "#down", "cullface": "down" },
        "west":  { "uv": [ 1.5, 14, 1, 13.5 ], "texture": "#down", "cullface": "down" },
        "east":  { "uv": [ 1, 13.5, 1.5, 14 ], "rotation": 180, "texture": "#down", "cullface": "down" }
    }
},
{
    "from": [ 1.5, -0.5, 13 ],
    "to": [ 2.5, 0, 13.5 ],
    "faces": {
        "down":  { "uv": [ 2.5, 13.5, 3, 14.5 ], "rotation": 90, "texture": "#down", "cullface": "down" },
        "north": { "uv": [ 2.5, 13.5, 3, 14.5 ], "rotation": 270, "texture": "#down", "cullface": "down" },
        "west":  { "uv": [ 3, 14, 2.5, 13.5 ], "texture": "#down", "cullface": "down" },
        "east":  { "uv": [ 2.5, 13.5, 3, 14 ], "rotation": 180, "texture": "#down", "cullface": "down" }
    }
}
],
"display": {
    "thirdperson_righthand": {
        "rotation": [ 0, 0, 0 ],
        "translation": [ 0, 0, 0 ],
        "scale": [ 0.5, 0.5, 0.5 ]
    },
    "ground": {
        "rotation": [ 0, 0, 0 ],
        "translation": [ 0, 1, 0 ],
        "scale": [ 0.25, 0.25, 0.25 ]
    },
    "fixed": {
        "rotation": [ 0, 0, 0 ],
        "translation": [ 0, 0, 0 ],
        "scale": [ 1, 1, 1 ]
    },
    "firstperson_righthand": {
        "rotation": [ 0, 0, 0 ],
        "translation": [ 0, 0, 0 ],
        "scale": [ 0.25, 0.25, 0.25 ]
    },
    "gui": {
        "rotation": [ 25, 45, 0 ],
        "translation": [ 0, 0, 0 ],
        "scale": [ 0.5, 0.5, 0.5 ]
    }
}
}